EESchema Schematic File Version 2
LIBS:kicad-spice
EELAYER 25 0
EELAYER END
$Descr A4 11693 8268
encoding utf-8
Sheet 1 1
Title ""
Date ""
Rev ""
Comp ""
Comment1 ""
Comment2 ""
Comment3 ""
Comment4 ""
$EndDescr
$Comp
L V V1
U 1 1 54ECA53D
P 7000 3200
F 0 "V1" V 6800 3200 60  0000 C CNN
F 1 "DC 3.3V" V 7250 3200 60  0000 C CNN
F 2 "" H 7000 3200 60  0000 C CNN
F 3 "" H 7000 3200 60  0000 C CNN
	1    7000 3200
	1    0    0    -1  
$EndComp
Text GLabel 7000 2900 1    60   Input ~ 0
VCC
Text Notes 850  2800 0    60   ~ 0
-pspice\n* \n.SUBCKT 1N4148 1 2 \n*\n* The resistor R1 does not reflect \n* a physical device. Instead it\n* improves modeling in the reverse \n* mode of operation.\n*\nR1 1 2 5.827E+9 \nD1 1 2 1N4148\n*\n.MODEL 1N4148 D \n+ IS = 4.352E-9 \n+ N = 1.906 \n+ BV = 110 \n+ IBV = 0.0001 \n+ RS = 0.6458 \n+ CJO = 7.048E-13 \n+ VJ = 0.869 \n+ M = 0.03 \n+ FC = 0.5 \n+ TT = 3.48E-9 \n.ENDS
$Comp
L 0 #GND01
U 1 1 550C7393
P 7000 3500
F 0 "#GND01" H 7000 3400 40  0001 C CNN
F 1 "0" H 7000 3430 40  0000 C CNN
F 2 "" H 7000 3500 60  0000 C CNN
F 3 "" H 7000 3500 60  0000 C CNN
	1    7000 3500
	1    0    0    -1  
$EndComp
Text Notes 7700 6050 0    60   ~ 0
+pspice\n* \n.control\n  option nopage\n*  tran 10nS 2mS 0mS\n*  tran 10nS 50.1mS 50mS\n  tran 1nS 1.0001mS 1mS\n  set gnuplot_terminal=png\n  gnuplot project\n  + v(mon)\n  + v(x1)\n  + v(mon,x1)\n  + v(gfb)\n  + v(out)\n.endc
$Comp
L V V2
U 1 1 572C2687
P 4000 3500
F 0 "V2" V 3800 3500 60  0000 C CNN
F 1 "SIN 1.6V 1.6V 24Meg" H 3650 3950 47  0000 C CNN
F 2 "" H 4000 3500 60  0000 C CNN
F 3 "" H 4000 3500 60  0000 C CNN
	1    4000 3500
	1    0    0    -1  
$EndComp
$Comp
L R R2
U 1 1 572C2897
P 7100 4400
F 0 "R2" H 7100 4500 50  0000 C CNN
F 1 "680K" H 7100 4300 50  0000 C CNN
F 2 "" V 7030 4400 30  0000 C CNN
F 3 "" H 7100 4400 30  0000 C CNN
	1    7100 4400
	0    -1   -1   0   
$EndComp
Text GLabel 5200 4100 0    60   Input ~ 0
GFB
Wire Wire Line
	7000 3400 7000 3500
Wire Wire Line
	7000 2900 7000 3000
Wire Wire Line
	5200 4100 5300 4100
Wire Wire Line
	5300 4100 5300 4300
Wire Wire Line
	4000 3300 4000 3200
Wire Wire Line
	4000 3200 4100 3200
Text GLabel 4100 3200 2    60   Input ~ 0
MON
$Comp
L 0 #GND02
U 1 1 572C3390
P 4000 3800
F 0 "#GND02" H 4000 3700 40  0001 C CNN
F 1 "0" H 4000 3730 40  0000 C CNN
F 2 "" H 4000 3800 60  0000 C CNN
F 3 "" H 4000 3800 60  0000 C CNN
	1    4000 3800
	1    0    0    -1  
$EndComp
Wire Wire Line
	4000 3700 4000 3800
$Comp
L D D1
U 1 1 573A0939
P 6300 4100
F 0 "D1" H 6300 4225 60  0000 C CNN
F 1 "Dhalfbav99lt1" H 6300 3975 60  0000 C CNN
F 2 "" H 6300 4100 60  0000 C CNN
F 3 "" H 6300 4100 60  0000 C CNN
	1    6300 4100
	1    0    0    -1  
$EndComp
$Comp
L D D2
U 1 1 573A0A1D
P 6000 4400
F 0 "D2" H 6000 4525 60  0000 C CNN
F 1 "Dhalfbav99lt1" H 6000 4275 60  0000 C CNN
F 2 "" H 6000 4400 60  0000 C CNN
F 3 "" H 6000 4400 60  0000 C CNN
	1    6000 4400
	0    -1   -1   0   
$EndComp
Wire Wire Line
	6200 4100 6000 4100
Wire Wire Line
	6000 4100 6000 4300
$Comp
L C C2
U 1 1 573A0B8B
P 5300 4400
F 0 "C2" H 5300 4525 60  0000 C CNN
F 1 "2.3p" H 5300 4275 60  0000 C CNN
F 2 "" H 4650 4950 60  0000 C CNN
F 3 "" H 4650 4950 60  0000 C CNN
	1    5300 4400
	0    -1   -1   0   
$EndComp
Text GLabel 5800 3200 2    60   Input ~ 0
GFB
$Comp
L R R1
U 1 1 573A0DAD
P 5100 3200
F 0 "R1" H 5100 3300 50  0000 C CNN
F 1 "2.2K" H 5100 3100 50  0000 C CNN
F 2 "" V 5030 3200 30  0000 C CNN
F 3 "" H 5100 3200 30  0000 C CNN
	1    5100 3200
	1    0    0    -1  
$EndComp
Wire Wire Line
	4900 3200 4800 3200
Text GLabel 4800 3200 0    60   Input ~ 0
MON
$Comp
L C C1
U 1 1 573A0ED9
P 5600 3200
F 0 "C1" H 5600 3325 60  0000 C CNN
F 1 "10n" H 5600 3075 60  0000 C CNN
F 2 "" H 4950 3750 60  0000 C CNN
F 3 "" H 4950 3750 60  0000 C CNN
	1    5600 3200
	1    0    0    -1  
$EndComp
Wire Wire Line
	5500 3200 5300 3200
Wire Wire Line
	5700 3200 5800 3200
Text GLabel 6000 4100 0    60   Input ~ 0
GFB
Wire Wire Line
	6000 4500 6000 4700
$Comp
L 0 #GND03
U 1 1 573A1124
P 6000 4700
F 0 "#GND03" H 6000 4600 40  0001 C CNN
F 1 "0" H 6000 4630 40  0000 C CNN
F 2 "" H 6000 4700 60  0000 C CNN
F 3 "" H 6000 4700 60  0000 C CNN
	1    6000 4700
	1    0    0    -1  
$EndComp
Wire Wire Line
	5300 4500 5300 4700
$Comp
L 0 #GND04
U 1 1 573A11C1
P 5300 4700
F 0 "#GND04" H 5300 4600 40  0001 C CNN
F 1 "0" H 5300 4630 40  0000 C CNN
F 2 "" H 5300 4700 60  0000 C CNN
F 3 "" H 5300 4700 60  0000 C CNN
	1    5300 4700
	1    0    0    -1  
$EndComp
$Comp
L C C3
U 1 1 573A12D5
P 6600 4400
F 0 "C3" H 6600 4525 60  0000 C CNN
F 1 "10n" H 6600 4275 60  0000 C CNN
F 2 "" H 5950 4950 60  0000 C CNN
F 3 "" H 5950 4950 60  0000 C CNN
	1    6600 4400
	0    -1   -1   0   
$EndComp
Wire Wire Line
	6400 4100 7100 4100
Wire Wire Line
	6600 4100 6600 4300
Wire Wire Line
	6600 4500 6600 4700
$Comp
L 0 #GND05
U 1 1 573A13A2
P 6600 4700
F 0 "#GND05" H 6600 4600 40  0001 C CNN
F 1 "0" H 6600 4630 40  0000 C CNN
F 2 "" H 6600 4700 60  0000 C CNN
F 3 "" H 6600 4700 60  0000 C CNN
	1    6600 4700
	1    0    0    -1  
$EndComp
Wire Wire Line
	7100 4100 7100 4200
Connection ~ 6600 4100
Wire Wire Line
	7100 4600 7100 4700
$Comp
L 0 #GND06
U 1 1 573A141F
P 7100 4700
F 0 "#GND06" H 7100 4600 40  0001 C CNN
F 1 "0" H 7100 4630 40  0000 C CNN
F 2 "" H 7100 4700 60  0000 C CNN
F 3 "" H 7100 4700 60  0000 C CNN
	1    7100 4700
	1    0    0    -1  
$EndComp
Text GLabel 7100 4100 2    60   Input ~ 0
OUT
$Comp
L R R3
U 1 1 573A1944
P 7500 3200
F 0 "R3" H 7500 3300 50  0000 C CNN
F 1 "1M" H 7500 3100 50  0000 C CNN
F 2 "" V 7430 3200 30  0000 C CNN
F 3 "" H 7500 3200 30  0000 C CNN
	1    7500 3200
	0    -1   -1   0   
$EndComp
Text GLabel 7500 2900 1    60   Input ~ 0
VCC
Wire Wire Line
	7500 2900 7500 3000
$Comp
L 0 #GND07
U 1 1 573A19F3
P 7500 3500
F 0 "#GND07" H 7500 3400 40  0001 C CNN
F 1 "0" H 7500 3430 40  0000 C CNN
F 2 "" H 7500 3500 60  0000 C CNN
F 3 "" H 7500 3500 60  0000 C CNN
	1    7500 3500
	1    0    0    -1  
$EndComp
Wire Wire Line
	7500 3400 7500 3500
Text GLabel 5400 3200 1    60   Input ~ 0
X1
Text Notes 2900 2600 0    60   ~ 0
* 1MHz\nPULSE 0V 3.2V 0S 0S 0S 0.5mS 1mS\n* 4.8MHz\nPULSE 0V 3.2V 0S 0S 0S 108nS 216nS\n* 24MHz\nPULSE 0V 3.2V 0S 0S 0S 21nS 42nS
Text Notes 4300 4900 0    60   ~ 0
2.3p - dry\n5.8p - wet
Text Notes 900  5550 0    60   ~ 0
-pspice\n* \n.MODEL Dhalfbav99lt1 d\n+IS=4.42863e-09\n+RS=1.16785\n+N=1.85692\n+EG=1.17071\n+XTI=5e-06\n+BV=70\n+IBV=4e-09\n+CJO=6.20086e-13\n+VJ=0.225416\n+M=0.0448642\n+FC=0.5\n+TT=5.1937e-09\n+KF=0\n+AF=1
$EndSCHEMATC
