EESchema Schematic File Version 2
LIBS:power
LIBS:device
LIBS:transistors
LIBS:conn
LIBS:linear
LIBS:regul
LIBS:74xx
LIBS:cmos4000
LIBS:adc-dac
LIBS:memory
LIBS:xilinx
LIBS:microcontrollers
LIBS:dsp
LIBS:microchip
LIBS:analog_switches
LIBS:motorola
LIBS:texas
LIBS:intel
LIBS:audio
LIBS:interface
LIBS:digital-audio
LIBS:philips
LIBS:display
LIBS:cypress
LIBS:siliconi
LIBS:opto
LIBS:atmel
LIBS:contrib
LIBS:valves
LIBS:project-cache
EELAYER 25 0
EELAYER END
$Descr A4 11693 8268
encoding utf-8
Sheet 1 1
Title ""
Date ""
Rev ""
Comp ""
Comment1 ""
Comment2 ""
Comment3 ""
Comment4 ""
$EndDescr
$Comp
L BC817-40 Q1
U 1 1 55BF0B14
P 4400 3800
F 0 "Q1" H 4400 3950 40  0000 R CNN
F 1 "2N2222A" V 4600 3950 40  0000 R CNN
F 2 "Local:SOT-23" H 4200 3902 29  0001 C CNN
F 3 "" H 4400 3800 60  0000 C CNN
	1    4400 3800
	1    0    0    -1  
$EndComp
Wire Wire Line
	4200 3800 4100 3800
$Comp
L R R1
U 1 1 55BF0CC1
P 4200 3350
F 0 "R1" V 4280 3350 50  0000 C CNN
F 1 "100" V 4207 3351 50  0000 C CNN
F 2 "Local:R_0603" V 4130 3350 30  0001 C CNN
F 3 "" H 4200 3350 30  0000 C CNN
	1    4200 3350
	-1   0    0    1   
$EndComp
Wire Wire Line
	4200 3600 4100 3600
Wire Wire Line
	4500 4000 4500 4200
Wire Wire Line
	4500 4100 4600 4100
Connection ~ 4500 4100
$Comp
L R R2
U 1 1 55BF0DD2
P 4500 4350
F 0 "R2" V 4580 4350 50  0000 C CNN
F 1 "100" V 4507 4351 50  0000 C CNN
F 2 "Local:R_0603" V 4430 4350 30  0001 C CNN
F 3 "" H 4500 4350 30  0000 C CNN
	1    4500 4350
	-1   0    0    -1  
$EndComp
$Comp
L GND #PWR01
U 1 1 55BF0E35
P 4500 4600
F 0 "#PWR01" H 4500 4350 60  0001 C CNN
F 1 "GND" H 4500 4450 60  0000 C CNN
F 2 "" H 4500 4600 60  0000 C CNN
F 3 "" H 4500 4600 60  0000 C CNN
	1    4500 4600
	1    0    0    -1  
$EndComp
Wire Wire Line
	4500 4500 4500 4600
Wire Wire Line
	4200 3500 4200 3600
Wire Wire Line
	4500 3500 4500 3600
Wire Wire Line
	4200 3200 4200 3100
$Comp
L GND #PWR02
U 1 1 55BF15E4
P 6200 3750
F 0 "#PWR02" H 6200 3500 60  0001 C CNN
F 1 "GND" H 6200 3600 60  0000 C CNN
F 2 "" H 6200 3750 60  0000 C CNN
F 3 "" H 6200 3750 60  0000 C CNN
	1    6200 3750
	1    0    0    -1  
$EndComp
Text GLabel 5900 4000 3    47   Input ~ 0
HUMIDITY
Text GLabel 4100 3600 0    47   Input ~ 0
GROUND_A
Text GLabel 4100 3800 0    47   Input ~ 0
GROUND_B
$Comp
L LED D1
U 1 1 55BF5046
P 5200 4050
F 0 "D1" H 5200 4150 50  0000 C CNN
F 1 "LED" H 5200 3950 50  0000 C CNN
F 2 "Local:LED_0603" H 5200 4050 60  0001 C CNN
F 3 "" H 5200 4050 60  0000 C CNN
	1    5200 4050
	0    -1   -1   0   
$EndComp
$Comp
L R R3
U 1 1 55BF51E0
P 5200 3600
F 0 "R3" V 5280 3600 50  0000 C CNN
F 1 "1K" V 5207 3601 50  0000 C CNN
F 2 "Local:R_0603" V 5130 3600 30  0001 C CNN
F 3 "" H 5200 3600 30  0000 C CNN
	1    5200 3600
	-1   0    0    1   
$EndComp
Wire Wire Line
	5200 3350 5200 3450
Wire Wire Line
	5200 3750 5200 3850
$Comp
L GND #PWR03
U 1 1 55BF52D7
P 5200 4350
F 0 "#PWR03" H 5200 4100 60  0001 C CNN
F 1 "GND" H 5200 4200 60  0000 C CNN
F 2 "" H 5200 4350 60  0000 C CNN
F 3 "" H 5200 4350 60  0000 C CNN
	1    5200 4350
	1    0    0    -1  
$EndComp
Wire Wire Line
	5200 4250 5200 4350
$Comp
L RJ12 J1
U 1 1 56EBD6E0
P 6000 3200
F 0 "J1" H 6200 3700 60  0000 C CNN
F 1 "RJ12" H 5850 3700 60  0000 C CNN
F 2 "Local:RJ12" H 6000 3200 60  0001 C CNN
F 3 "" H 6000 3200 60  0000 C CNN
	1    6000 3200
	1    0    0    -1  
$EndComp
Wire Wire Line
	6200 3650 6200 3750
Wire Wire Line
	6000 3650 6000 3750
$Comp
L Photores R4
U 1 1 56EBDD71
P 7200 3650
F 0 "R4" V 7280 3650 50  0000 C CNN
F 1 "1M" V 7410 3650 50  0000 C TNN
F 2 "Local:PHOTORES_5" V 7130 3650 30  0001 C CNN
F 3 "" H 7200 3650 30  0000 C CNN
	1    7200 3650
	1    0    0    -1  
$EndComp
$Comp
L R R5
U 1 1 56EBDE50
P 7200 4250
F 0 "R5" V 7280 4250 50  0000 C CNN
F 1 "10K" V 7207 4251 50  0000 C CNN
F 2 "Local:R_0603" V 7130 4250 30  0001 C CNN
F 3 "" H 7200 4250 30  0000 C CNN
	1    7200 4250
	-1   0    0    -1  
$EndComp
$Comp
L VCC #PWR04
U 1 1 56EBDEED
P 4200 3100
F 0 "#PWR04" H 4200 2950 50  0001 C CNN
F 1 "VCC" H 4200 3250 50  0000 C CNN
F 2 "" H 4200 3100 60  0000 C CNN
F 3 "" H 4200 3100 60  0000 C CNN
	1    4200 3100
	1    0    0    -1  
$EndComp
$Comp
L VCC #PWR05
U 1 1 56EBDF62
P 4500 3500
F 0 "#PWR05" H 4500 3350 50  0001 C CNN
F 1 "VCC" H 4500 3650 50  0000 C CNN
F 2 "" H 4500 3500 60  0000 C CNN
F 3 "" H 4500 3500 60  0000 C CNN
	1    4500 3500
	1    0    0    -1  
$EndComp
$Comp
L VCC #PWR06
U 1 1 56EBDF91
P 7200 3300
F 0 "#PWR06" H 7200 3150 50  0001 C CNN
F 1 "VCC" H 7200 3450 50  0000 C CNN
F 2 "" H 7200 3300 60  0000 C CNN
F 3 "" H 7200 3300 60  0000 C CNN
	1    7200 3300
	1    0    0    -1  
$EndComp
$Comp
L VCC #PWR07
U 1 1 56EBE07A
P 6000 3750
F 0 "#PWR07" H 6000 3600 50  0001 C CNN
F 1 "VCC" H 6000 3900 50  0000 C CNN
F 2 "" H 6000 3750 60  0000 C CNN
F 3 "" H 6000 3750 60  0000 C CNN
	1    6000 3750
	-1   0    0    1   
$EndComp
$Comp
L VCC #PWR08
U 1 1 56EBE141
P 5200 3350
F 0 "#PWR08" H 5200 3200 50  0001 C CNN
F 1 "VCC" H 5200 3500 50  0000 C CNN
F 2 "" H 5200 3350 60  0000 C CNN
F 3 "" H 5200 3350 60  0000 C CNN
	1    5200 3350
	1    0    0    -1  
$EndComp
$Comp
L GND #PWR09
U 1 1 56EBE22D
P 7200 4600
F 0 "#PWR09" H 7200 4350 60  0001 C CNN
F 1 "GND" H 7200 4450 60  0000 C CNN
F 2 "" H 7200 4600 60  0000 C CNN
F 3 "" H 7200 4600 60  0000 C CNN
	1    7200 4600
	1    0    0    -1  
$EndComp
Wire Wire Line
	7200 3900 7200 4100
Wire Wire Line
	7200 4400 7200 4600
Wire Wire Line
	7200 3300 7200 3400
$Comp
L C C1
U 1 1 56EBE342
P 6900 4250
F 0 "C1" H 6925 4350 50  0000 L CNN
F 1 "100n" H 6925 4150 50  0000 L CNN
F 2 "Local:C_0603" H 6938 4100 30  0001 C CNN
F 3 "" H 6900 4250 60  0000 C CNN
	1    6900 4250
	1    0    0    -1  
$EndComp
Wire Wire Line
	6900 4000 7300 4000
Wire Wire Line
	6900 4000 6900 4100
Connection ~ 7200 4000
Wire Wire Line
	7200 4500 6900 4500
Wire Wire Line
	6900 4500 6900 4400
Connection ~ 7200 4500
Text GLabel 6100 4000 3    47   Input ~ 0
LIGHT
Wire Wire Line
	5900 3650 5900 4000
Wire Wire Line
	6100 3650 6100 4000
Text GLabel 7300 4000 2    47   Input ~ 0
LIGHT
Text GLabel 4600 4100 2    47   Input ~ 0
HUMIDITY
$EndSCHEMATC
