EESchema Schematic File Version 2
LIBS:power
LIBS:device
LIBS:transistors
LIBS:conn
LIBS:linear
LIBS:regul
LIBS:74xx
LIBS:cmos4000
LIBS:adc-dac
LIBS:memory
LIBS:xilinx
LIBS:microcontrollers
LIBS:dsp
LIBS:microchip
LIBS:analog_switches
LIBS:motorola
LIBS:texas
LIBS:intel
LIBS:audio
LIBS:interface
LIBS:digital-audio
LIBS:philips
LIBS:display
LIBS:cypress
LIBS:siliconi
LIBS:opto
LIBS:atmel
LIBS:contrib
LIBS:valves
LIBS:stm32
LIBS:lph7366
LIBS:clock
LIBS:handler
LIBS:radio
LIBS:esdprot
LIBS:sdcard
LIBS:iface
LIBS:project-cache
EELAYER 25 0
EELAYER END
$Descr A4 11693 8268
encoding utf-8
Sheet 2 3
Title ""
Date ""
Rev ""
Comp ""
Comment1 ""
Comment2 ""
Comment3 ""
Comment4 ""
$EndDescr
$Comp
L ESP-12 D8
U 1 1 572DE0E2
P 2900 1650
F 0 "D8" H 2900 2150 60  0000 C CNN
F 1 "ESP-12" H 2900 1150 60  0000 C CNN
F 2 "Local:ESP-12" H 2900 1650 60  0001 C CNN
F 3 "" H 2900 1650 60  0000 C CNN
	1    2900 1650
	1    0    0    -1  
$EndComp
Text GLabel 4100 1300 2    47   Input ~ 0
WRT_TX
Text GLabel 4100 1400 2    47   Input ~ 0
WRT_RX
Wire Wire Line
	4100 1300 4000 1300
Wire Wire Line
	4100 1400 4000 1400
Wire Wire Line
	1800 2000 1700 2000
Wire Wire Line
	4000 2000 4100 2000
Wire Wire Line
	4100 2000 4100 2100
Wire Wire Line
	1700 2000 1700 1200
$Comp
L GND #PWR044
U 1 1 572DE0F1
P 4100 2100
F 0 "#PWR044" H 4100 1850 50  0001 C CNN
F 1 "GND" H 4100 1950 50  0000 C CNN
F 2 "" H 4100 2100 60  0000 C CNN
F 3 "" H 4100 2100 60  0000 C CNN
	1    4100 2100
	1    0    0    -1  
$EndComp
$Comp
L +3V3 #PWR045
U 1 1 572DE0F7
P 1700 1200
F 0 "#PWR045" H 1700 1050 60  0001 C CNN
F 1 "+3V3" H 1700 1340 60  0000 C CNN
F 2 "" H 1700 1200 60  0000 C CNN
F 3 "" H 1700 1200 60  0000 C CNN
	1    1700 1200
	1    0    0    -1  
$EndComp
Wire Wire Line
	1800 1500 1600 1500
Text GLabel 1600 1500 0    47   Input ~ 0
~WRT_PON
Wire Wire Line
	1800 1300 1600 1300
Text GLabel 1600 1300 0    47   Input ~ 0
~WRT_RES
$Comp
L XL4432-SMT D9
U 1 1 572DE562
P 2600 3500
F 0 "D9" H 2600 4250 60  0000 C CNN
F 1 "XL4432-SMT" H 2600 2850 60  0000 C CNN
F 2 "Local:XL4432-SMT" H 2600 3500 60  0001 C CNN
F 3 "" H 2600 3500 60  0000 C CNN
	1    2600 3500
	1    0    0    -1  
$EndComp
$Comp
L GND #PWR046
U 1 1 572DE569
P 2100 4100
F 0 "#PWR046" H 2100 3850 60  0001 C CNN
F 1 "GND" H 2100 3950 60  0000 C CNN
F 2 "" H 2100 4100 60  0000 C CNN
F 3 "" H 2100 4100 60  0000 C CNN
	1    2100 4100
	1    0    0    -1  
$EndComp
$Comp
L GND #PWR047
U 1 1 572DE56F
P 3100 3100
F 0 "#PWR047" H 3100 2850 60  0001 C CNN
F 1 "GND" H 3100 2950 60  0000 C CNN
F 2 "" H 3100 3100 60  0000 C CNN
F 3 "" H 3100 3100 60  0000 C CNN
	1    3100 3100
	1    0    0    -1  
$EndComp
$Comp
L C C21
U 1 1 572DE575
P 3100 3850
F 0 "C21" H 3125 3950 50  0000 L CNN
F 1 "100n" H 3125 3750 50  0000 L CNN
F 2 "Local:C_0603" H 3138 3700 30  0001 C CNN
F 3 "" H 3100 3850 60  0000 C CNN
	1    3100 3850
	1    0    0    -1  
$EndComp
$Comp
L +3V3 #PWR048
U 1 1 572DE57C
P 2000 2800
F 0 "#PWR048" H 2000 2650 60  0001 C CNN
F 1 "+3V3" H 2000 2940 60  0000 C CNN
F 2 "" H 2000 2800 60  0000 C CNN
F 3 "" H 2000 2800 60  0000 C CNN
	1    2000 2800
	1    0    0    -1  
$EndComp
Wire Wire Line
	2200 2900 2100 2900
Wire Wire Line
	2100 2900 2100 4100
Wire Wire Line
	2100 4000 2200 4000
Connection ~ 2100 4000
Wire Wire Line
	3000 2900 3100 2900
Wire Wire Line
	3000 3000 3100 3000
Wire Wire Line
	3100 3000 3100 3100
Wire Wire Line
	2200 3300 2000 3300
Wire Wire Line
	2000 3300 2000 2800
$Comp
L +3V3 #PWR049
U 1 1 572DE58B
P 3100 3600
F 0 "#PWR049" H 3100 3450 60  0001 C CNN
F 1 "+3V3" H 3100 3740 60  0000 C CNN
F 2 "" H 3100 3600 60  0000 C CNN
F 3 "" H 3100 3600 60  0000 C CNN
	1    3100 3600
	1    0    0    -1  
$EndComp
$Comp
L GND #PWR050
U 1 1 572DE591
P 3100 4100
F 0 "#PWR050" H 3100 3850 60  0001 C CNN
F 1 "GND" H 3100 3950 60  0000 C CNN
F 2 "" H 3100 4100 60  0000 C CNN
F 3 "" H 3100 4100 60  0000 C CNN
	1    3100 4100
	1    0    0    -1  
$EndComp
Wire Wire Line
	3100 4000 3100 4100
Wire Wire Line
	3100 3600 3100 3700
$Comp
L CONN_01X01 P1
U 1 1 572DE599
P 3300 2900
F 0 "P1" H 3300 3000 50  0000 C CNN
F 1 "ANT" V 3400 2900 50  0000 C CNN
F 2 "" H 3300 2900 60  0001 C CNN
F 3 "" H 3300 2900 60  0000 C CNN
	1    3300 2900
	1    0    0    -1  
$EndComp
Wire Wire Line
	2200 3600 2000 3600
Wire Wire Line
	2200 3500 1650 3500
Wire Wire Line
	2200 3400 2000 3400
Wire Wire Line
	2200 3700 2000 3700
Wire Wire Line
	2200 3800 2000 3800
Wire Wire Line
	2200 3900 2000 3900
Text GLabel 2000 3700 0    47   Input ~ 0
~RIF_NSS
Text GLabel 2000 3600 0    47   Input ~ 0
RIF_SCLK
Text GLabel 2000 3400 0    47   Input ~ 0
RIF_MISO
Text GLabel 1250 3500 0    47   Input ~ 0
RIF_MOSI
Text GLabel 2000 3800 0    47   Input ~ 0
~RIF_IRQ
Text GLabel 2000 3900 0    47   Input ~ 0
~RIF_PON
Wire Wire Line
	2200 3000 1900 3000
Wire Wire Line
	2200 3100 1900 3100
Wire Wire Line
	2200 3200 1900 3200
$Comp
L C C16
U 1 1 572DEBF1
P 4800 1700
F 0 "C16" H 4825 1800 50  0000 L CNN
F 1 "100n" H 4825 1600 50  0000 L CNN
F 2 "Local:C_0603" H 4838 1550 30  0001 C CNN
F 3 "" H 4800 1700 60  0000 C CNN
	1    4800 1700
	1    0    0    -1  
$EndComp
$Comp
L +3V3 #PWR051
U 1 1 572DEBF7
P 4800 1450
F 0 "#PWR051" H 4800 1300 60  0001 C CNN
F 1 "+3V3" H 4800 1590 60  0000 C CNN
F 2 "" H 4800 1450 60  0000 C CNN
F 3 "" H 4800 1450 60  0000 C CNN
	1    4800 1450
	1    0    0    -1  
$EndComp
$Comp
L GND #PWR052
U 1 1 572DEBFD
P 4800 1950
F 0 "#PWR052" H 4800 1700 60  0001 C CNN
F 1 "GND" H 4800 1800 60  0000 C CNN
F 2 "" H 4800 1950 60  0000 C CNN
F 3 "" H 4800 1950 60  0000 C CNN
	1    4800 1950
	1    0    0    -1  
$EndComp
Wire Wire Line
	4800 1850 4800 1950
Wire Wire Line
	4800 1450 4800 1550
Text GLabel 2200 5100 0    47   Input ~ 0
SWDIO
Text GLabel 2200 5300 0    47   Input ~ 0
SWCLK
$Comp
L CONN_01X04 P2
U 1 1 572DF51F
P 2600 5250
F 0 "P2" H 2600 5500 50  0000 C CNN
F 1 "SWD" V 2700 5250 50  0000 C CNN
F 2 "Local:Pin_Header_Straight_1x04" H 2600 5250 60  0001 C CNN
F 3 "" H 2600 5250 60  0000 C CNN
	1    2600 5250
	1    0    0    1   
$EndComp
$Comp
L GND #PWR053
U 1 1 572DF55A
P 2300 5500
F 0 "#PWR053" H 2300 5250 60  0001 C CNN
F 1 "GND" H 2300 5350 60  0000 C CNN
F 2 "" H 2300 5500 60  0000 C CNN
F 3 "" H 2300 5500 60  0000 C CNN
	1    2300 5500
	1    0    0    -1  
$EndComp
$Comp
L +3V3 #PWR054
U 1 1 572DF577
P 2300 5000
F 0 "#PWR054" H 2300 4850 60  0001 C CNN
F 1 "+3V3" H 2300 5140 60  0000 C CNN
F 2 "" H 2300 5000 60  0000 C CNN
F 3 "" H 2300 5000 60  0000 C CNN
	1    2300 5000
	1    0    0    -1  
$EndComp
Wire Wire Line
	2400 5200 2300 5200
Wire Wire Line
	2300 5200 2300 5000
Wire Wire Line
	2400 5400 2300 5400
Wire Wire Line
	2300 5400 2300 5500
Wire Wire Line
	2400 5300 2200 5300
Wire Wire Line
	2400 5100 2200 5100
$Comp
L R R25
U 1 1 572E08DA
P 7200 2650
F 0 "R25" V 7280 2650 50  0000 C CNN
F 1 "1K5" V 7200 2650 50  0000 C CNN
F 2 "Local:R_0603" H 7200 2650 60  0001 C CNN
F 3 "" H 7200 2650 60  0001 C CNN
	1    7200 2650
	-1   0    0    -1  
$EndComp
$Comp
L GND #PWR055
U 1 1 572E08E1
P 6100 1750
F 0 "#PWR055" H 6100 1750 30  0001 C CNN
F 1 "GND" H 6100 1680 30  0001 C CNN
F 2 "" H 6100 1750 60  0001 C CNN
F 3 "" H 6100 1750 60  0001 C CNN
	1    6100 1750
	1    0    0    -1  
$EndComp
Text Label 6100 1200 0    60   ~ 0
USBD-
$Comp
L ESD_PROT U1
U 1 1 572E08E8
P 6550 1650
F 0 "U1" H 6400 1900 60  0000 C CNN
F 1 "ESD_PROT" H 6850 1900 60  0000 C CNN
F 2 "Local:SOT-143" H 6550 1650 60  0001 C CNN
F 3 "" H 6550 1650 60  0001 C CNN
	1    6550 1650
	1    0    0    1   
$EndComp
$Comp
L USB_OTG J7
U 1 1 572E08EF
P 7800 1900
F 0 "J7" V 7500 1900 60  0000 C CNN
F 1 "USB-OTG" H 7800 2100 60  0000 C CNN
F 2 "Local:USB_Mini-B" H 7800 1900 60  0001 C CNN
F 3 "" H 7800 1900 60  0001 C CNN
	1    7800 1900
	0    1    1    0   
$EndComp
Text Label 6650 2100 0    60   ~ 0
USBD+
$Comp
L C C20
U 1 1 572E08F7
P 6300 2750
F 0 "C20" H 6350 2850 50  0000 L CNN
F 1 "47p" H 6350 2650 50  0000 L CNN
F 2 "Local:C_0603" H 6300 2750 60  0001 C CNN
F 3 "" H 6300 2750 60  0001 C CNN
	1    6300 2750
	-1   0    0    -1  
$EndComp
$Comp
L GND #PWR056
U 1 1 572E08FE
P 6150 3100
F 0 "#PWR056" H 6150 3100 30  0001 C CNN
F 1 "GND" H 6150 3030 30  0001 C CNN
F 2 "" H 6150 3100 60  0001 C CNN
F 3 "" H 6150 3100 60  0001 C CNN
	1    6150 3100
	1    0    0    -1  
$EndComp
$Comp
L C C19
U 1 1 572E0904
P 6000 2750
F 0 "C19" H 6050 2850 50  0000 L CNN
F 1 "47p" H 6050 2650 50  0000 L CNN
F 2 "Local:C_0603" H 6000 2750 60  0001 C CNN
F 3 "" H 6000 2750 60  0001 C CNN
	1    6000 2750
	-1   0    0    -1  
$EndComp
$Comp
L R R24
U 1 1 572E090B
P 6950 2400
F 0 "R24" V 7030 2400 50  0000 C CNN
F 1 "22" V 6950 2400 50  0000 C CNN
F 2 "Local:R_0603" H 6950 2400 60  0001 C CNN
F 3 "" H 6950 2400 60  0001 C CNN
	1    6950 2400
	0    1    -1   0   
$EndComp
$Comp
L R R22
U 1 1 572E0912
P 6000 2150
F 0 "R22" V 6080 2150 50  0000 C CNN
F 1 "22" V 6000 2150 50  0000 C CNN
F 2 "Local:R_0603" H 6000 2150 60  0001 C CNN
F 3 "" H 6000 2150 60  0001 C CNN
	1    6000 2150
	-1   0    0    1   
$EndComp
Wire Wire Line
	7200 2400 7100 2400
Wire Wire Line
	6000 1200 7200 1200
Wire Wire Line
	6000 2000 6000 1200
Connection ~ 7200 2100
Wire Wire Line
	7200 1900 7200 2500
Connection ~ 6300 2400
Wire Wire Line
	6300 3000 6300 2900
Wire Wire Line
	6000 3000 6300 3000
Wire Wire Line
	6000 2900 6000 3000
Wire Wire Line
	6150 3100 6150 3000
Connection ~ 6150 3000
Wire Wire Line
	6000 2300 6000 2600
Wire Wire Line
	5900 2500 6000 2500
Connection ~ 6000 2500
Wire Wire Line
	7400 2100 7500 2100
Wire Wire Line
	6550 1300 6550 1200
Connection ~ 6550 1200
Wire Wire Line
	6550 2100 6550 2000
Wire Wire Line
	5900 2400 6800 2400
Wire Wire Line
	6300 2400 6300 2600
Wire Wire Line
	7200 1200 7200 1800
Wire Wire Line
	6550 2100 7200 2100
Wire Wire Line
	6100 1650 6200 1650
Wire Wire Line
	6100 1750 6100 1650
Wire Wire Line
	6900 1650 7000 1650
Wire Wire Line
	7000 1650 7000 1550
Text GLabel 5900 2400 0    47   Input ~ 0
USB_DP
Text GLabel 5900 2500 0    47   Input ~ 0
USB_DM
Text GLabel 7200 2900 3    47   Input ~ 0
USB_CON
Wire Wire Line
	7200 1800 7500 1800
Wire Wire Line
	7500 1900 7200 1900
Text Notes 9150 2900 0    60   ~ 0
USB cable detection with debounce\n~ \nUSB 5V => 3V2 (logic one)
Text Notes 9000 1850 0    60   ~ 0
Three conditional USB Connection Logic\n~ \n\n1. USB Cable connected\n2. 2.7-3.3V appears on USB_DET\n3. Logic one applied to USB_CON
Text Notes 5900 1150 0    60   ~ 0
ESD and current peak protection\n~ 
Text GLabel 7400 1600 1    60   Input ~ 0
USB_5V
Wire Wire Line
	7500 1700 7400 1700
Wire Wire Line
	7400 1700 7400 1600
Text GLabel 8500 1900 1    60   Input ~ 0
USB_5V
$Comp
L R R23
U 1 1 57309D39
P 8500 2150
F 0 "R23" V 8580 2150 50  0000 C CNN
F 1 "22K" V 8500 2150 50  0000 C CNN
F 2 "Local:R_0603" H 8500 2150 60  0001 C CNN
F 3 "" H 8500 2150 60  0001 C CNN
	1    8500 2150
	-1   0    0    -1  
$EndComp
$Comp
L C C18
U 1 1 57309E15
P 8500 2650
F 0 "C18" H 8550 2750 50  0000 L CNN
F 1 "100n" H 8550 2550 50  0000 L CNN
F 2 "Local:C_0603" H 8500 2650 60  0001 C CNN
F 3 "" H 8500 2650 60  0001 C CNN
	1    8500 2650
	-1   0    0    -1  
$EndComp
$Comp
L GND #PWR057
U 1 1 57309F57
P 8500 2900
F 0 "#PWR057" H 8500 2650 50  0001 C CNN
F 1 "GND" H 8500 2750 50  0000 C CNN
F 2 "" H 8500 2900 60  0000 C CNN
F 3 "" H 8500 2900 60  0000 C CNN
	1    8500 2900
	1    0    0    -1  
$EndComp
Wire Wire Line
	8500 2800 8500 2900
Wire Wire Line
	8500 1900 8500 2000
Wire Wire Line
	8500 2300 8500 2500
Wire Wire Line
	8500 2400 8900 2400
Wire Wire Line
	8800 2400 8800 2500
Connection ~ 8500 2400
$Comp
L R R27
U 1 1 5730A4B8
P 8800 2650
F 0 "R27" V 8880 2650 50  0000 C CNN
F 1 "39K" V 8800 2650 50  0000 C CNN
F 2 "Local:R_0603" H 8800 2650 60  0001 C CNN
F 3 "" H 8800 2650 60  0001 C CNN
	1    8800 2650
	-1   0    0    -1  
$EndComp
Wire Wire Line
	8800 2800 8800 2900
$Comp
L GND #PWR058
U 1 1 5730A619
P 8800 2900
F 0 "#PWR058" H 8800 2650 50  0001 C CNN
F 1 "GND" H 8800 2750 50  0000 C CNN
F 2 "" H 8800 2900 60  0000 C CNN
F 3 "" H 8800 2900 60  0000 C CNN
	1    8800 2900
	1    0    0    -1  
$EndComp
Text GLabel 8900 2400 2    60   Input ~ 0
USB_DET
Connection ~ 8800 2400
Wire Wire Line
	7200 2800 7200 2900
$Comp
L R R26
U 1 1 5730C880
P 7900 2650
F 0 "R26" V 7980 2650 50  0000 C CNN
F 1 "1M" V 7900 2650 50  0000 C CNN
F 2 "Local:R_0603" H 7900 2650 60  0001 C CNN
F 3 "" H 7900 2650 60  0001 C CNN
	1    7900 2650
	-1   0    0    -1  
$EndComp
$Comp
L C C17
U 1 1 5730C99A
P 7600 2650
F 0 "C17" H 7650 2750 50  0000 L CNN
F 1 "10n" H 7650 2550 50  0000 L CNN
F 2 "Local:C_0603" H 7600 2650 60  0001 C CNN
F 3 "" H 7600 2650 60  0001 C CNN
	1    7600 2650
	-1   0    0    -1  
$EndComp
$Comp
L GND #PWR059
U 1 1 5730CAC9
P 7400 2200
F 0 "#PWR059" H 7400 2200 30  0001 C CNN
F 1 "GND" H 7400 2130 30  0001 C CNN
F 2 "" H 7400 2200 60  0001 C CNN
F 3 "" H 7400 2200 60  0001 C CNN
	1    7400 2200
	1    0    0    -1  
$EndComp
Wire Wire Line
	7400 2100 7400 2200
Wire Wire Line
	7900 2300 7900 2500
Wire Wire Line
	7900 2400 7600 2400
Wire Wire Line
	7600 2400 7600 2500
Connection ~ 7900 2400
$Comp
L GND #PWR060
U 1 1 5730CCEF
P 7900 2900
F 0 "#PWR060" H 7900 2650 50  0001 C CNN
F 1 "GND" H 7900 2750 50  0000 C CNN
F 2 "" H 7900 2900 60  0000 C CNN
F 3 "" H 7900 2900 60  0000 C CNN
	1    7900 2900
	1    0    0    -1  
$EndComp
$Comp
L GND #PWR061
U 1 1 5730CD30
P 7600 2900
F 0 "#PWR061" H 7600 2650 50  0001 C CNN
F 1 "GND" H 7600 2750 50  0000 C CNN
F 2 "" H 7600 2900 60  0000 C CNN
F 3 "" H 7600 2900 60  0000 C CNN
	1    7600 2900
	1    0    0    -1  
$EndComp
Wire Wire Line
	7600 2800 7600 2900
Wire Wire Line
	7900 2800 7900 2900
Wire Wire Line
	7500 2000 7400 2000
NoConn ~ 7400 2000
Text Notes 2600 1050 0    60   ~ 0
WIFI interface
Text Notes 2300 2600 0    60   ~ 0
433 MHz Radio Interface
Text Notes 1800 4750 0    60   ~ 0
Flash/Debug connector
$Comp
L D_Schottky D10
U 1 1 57331F84
P 8250 1000
F 0 "D10" H 8250 1100 50  0000 C CNN
F 1 "SS14" H 8250 900 50  0000 C CNN
F 2 "Local:SMA_Standard" H 8250 1000 60  0001 C CNN
F 3 "" H 8250 1000 60  0000 C CNN
	1    8250 1000
	-1   0    0    -1  
$EndComp
Text GLabel 8000 1000 0    60   Input ~ 0
USB_5V
Wire Wire Line
	8100 1000 8000 1000
Wire Wire Line
	8400 1000 8500 1000
$Comp
L +5V #PWR062
U 1 1 576923FA
P 8500 900
F 0 "#PWR062" H 8500 750 50  0001 C CNN
F 1 "+5V" H 8500 1040 50  0000 C CNN
F 2 "" H 8500 900 50  0000 C CNN
F 3 "" H 8500 900 50  0000 C CNN
	1    8500 900 
	1    0    0    -1  
$EndComp
Wire Wire Line
	8500 1000 8500 900 
$Comp
L R R1
U 1 1 576A84F4
P 1500 3500
F 0 "R1" V 1580 3500 50  0000 C CNN
F 1 "0" V 1500 3500 50  0000 C CNN
F 2 "Local:R_0603" H 1500 3500 60  0001 C CNN
F 3 "" H 1500 3500 60  0001 C CNN
	1    1500 3500
	0    -1   -1   0   
$EndComp
Wire Wire Line
	1350 3500 1250 3500
NoConn ~ 1900 3000
NoConn ~ 1900 3100
NoConn ~ 1900 3200
Text GLabel 7000 1550 1    60   Input ~ 0
USB_5V
Connection ~ 7200 2400
$EndSCHEMATC
