EESchema Schematic File Version 2
LIBS:power
LIBS:device
LIBS:transistors
LIBS:conn
LIBS:linear
LIBS:regul
LIBS:74xx
LIBS:cmos4000
LIBS:adc-dac
LIBS:memory
LIBS:xilinx
LIBS:microcontrollers
LIBS:dsp
LIBS:microchip
LIBS:analog_switches
LIBS:motorola
LIBS:texas
LIBS:intel
LIBS:audio
LIBS:interface
LIBS:digital-audio
LIBS:philips
LIBS:display
LIBS:cypress
LIBS:siliconi
LIBS:opto
LIBS:atmel
LIBS:contrib
LIBS:valves
LIBS:stm32
LIBS:lph7366
LIBS:clock
LIBS:handler
LIBS:radio
LIBS:esdprot
LIBS:sdcard
LIBS:iface
LIBS:project-cache
EELAYER 25 0
EELAYER END
$Descr A4 11693 8268
encoding utf-8
Sheet 1 3
Title ""
Date ""
Rev ""
Comp ""
Comment1 ""
Comment2 ""
Comment3 ""
Comment4 ""
$EndDescr
$Comp
L STM32F103RBT6 D1
U 1 1 56F51735
P 3100 2500
F 0 "D1" H 3100 4300 60  0000 C CNN
F 1 "STM32F103RBT6" H 3100 700 60  0000 C CNN
F 2 "Local:LQFP-64_10x10mm_Pitch0.5mm" H 3100 2500 60  0001 C CNN
F 3 "" H 3100 2500 60  0000 C CNN
	1    3100 2500
	1    0    0    -1  
$EndComp
$Comp
L GND #PWR01
U 1 1 56F51851
P 1400 4200
F 0 "#PWR01" H 1400 3950 50  0001 C CNN
F 1 "GND" H 1400 4050 50  0000 C CNN
F 2 "" H 1400 4200 60  0000 C CNN
F 3 "" H 1400 4200 60  0000 C CNN
	1    1400 4200
	1    0    0    -1  
$EndComp
Text GLabel 1200 3300 0    47   Input ~ 0
3V3A
$Comp
L +3V3 #PWR02
U 1 1 56F51910
P 1100 4000
F 0 "#PWR02" H 1100 3850 50  0001 C CNN
F 1 "+3V3" H 1100 4140 50  0000 C CNN
F 2 "" H 1100 4000 60  0000 C CNN
F 3 "" H 1100 4000 60  0000 C CNN
	1    1100 4000
	1    0    0    -1  
$EndComp
$Comp
L RJ12 J1
U 1 1 572B2C76
P 8750 1200
F 0 "J1" V 8350 1200 60  0000 C CNN
F 1 "GND_SENSOR1" V 9200 1100 60  0000 C CNN
F 2 "Local:RJ12" H 8750 1200 60  0001 C CNN
F 3 "" H 8750 1200 60  0000 C CNN
	1    8750 1200
	0    1    1    0   
$EndComp
$Comp
L GND #PWR03
U 1 1 572B2FC5
P 8200 1600
F 0 "#PWR03" H 8200 1350 50  0001 C CNN
F 1 "GND" H 8200 1450 50  0000 C CNN
F 2 "" H 8200 1600 60  0000 C CNN
F 3 "" H 8200 1600 60  0000 C CNN
	1    8200 1600
	1    0    0    -1  
$EndComp
$Comp
L RJ12 J2
U 1 1 572B3F32
P 10450 1200
F 0 "J2" V 10050 1200 60  0000 C CNN
F 1 "GND_SENSOR2" V 10900 1100 60  0000 C CNN
F 2 "Local:RJ12" H 10450 1200 60  0001 C CNN
F 3 "" H 10450 1200 60  0000 C CNN
	1    10450 1200
	0    1    1    0   
$EndComp
$Comp
L GND #PWR04
U 1 1 572B3F4C
P 9900 1600
F 0 "#PWR04" H 9900 1350 50  0001 C CNN
F 1 "GND" H 9900 1450 50  0000 C CNN
F 2 "" H 9900 1600 60  0000 C CNN
F 3 "" H 9900 1600 60  0000 C CNN
	1    9900 1600
	1    0    0    -1  
$EndComp
$Comp
L RJ12 J4
U 1 1 572B4356
P 10450 2500
F 0 "J4" V 10050 2500 60  0000 C CNN
F 1 "LHT_DRIVER" V 10900 2400 60  0000 C CNN
F 2 "Local:RJ12" H 10450 2500 60  0001 C CNN
F 3 "" H 10450 2500 60  0000 C CNN
	1    10450 2500
	0    1    1    0   
$EndComp
$Comp
L GND #PWR05
U 1 1 572B4370
P 9900 2900
F 0 "#PWR05" H 9900 2650 50  0001 C CNN
F 1 "GND" H 9900 2750 50  0000 C CNN
F 2 "" H 9900 2900 60  0000 C CNN
F 3 "" H 9900 2900 60  0000 C CNN
	1    9900 2900
	1    0    0    -1  
$EndComp
$Comp
L GND #PWR06
U 1 1 572B438A
P 7000 1400
F 0 "#PWR06" H 7000 1150 50  0001 C CNN
F 1 "GND" H 7000 1250 50  0000 C CNN
F 2 "" H 7000 1400 60  0000 C CNN
F 3 "" H 7000 1400 60  0000 C CNN
	1    7000 1400
	1    0    0    -1  
$EndComp
$Comp
L RJ12 J3
U 1 1 572B439C
P 8750 2500
F 0 "J3" V 8350 2500 60  0000 C CNN
F 1 "HTR_DRIVER" V 9200 2400 60  0000 C CNN
F 2 "Local:RJ12" H 8750 2500 60  0001 C CNN
F 3 "" H 8750 2500 60  0000 C CNN
	1    8750 2500
	0    1    1    0   
$EndComp
$Comp
L GND #PWR07
U 1 1 572B43B6
P 8200 2900
F 0 "#PWR07" H 8200 2650 50  0001 C CNN
F 1 "GND" H 8200 2750 50  0000 C CNN
F 2 "" H 8200 2900 60  0000 C CNN
F 3 "" H 8200 2900 60  0000 C CNN
	1    8200 2900
	1    0    0    -1  
$EndComp
Text GLabel 4800 900  2    47   Input ~ 0
BOX_TMP
$Comp
L RJ12 J6
U 1 1 572B745F
P 10450 3900
F 0 "J6" V 10050 3900 60  0000 C CNN
F 1 "AIR_SENSOR2" V 10900 3750 60  0000 C CNN
F 2 "Local:RJ12" H 10450 3900 60  0001 C CNN
F 3 "" H 10450 3900 60  0000 C CNN
	1    10450 3900
	0    1    1    0   
$EndComp
$Comp
L GND #PWR08
U 1 1 572B76E7
P 9900 4300
F 0 "#PWR08" H 9900 4050 50  0001 C CNN
F 1 "GND" H 9900 4150 50  0000 C CNN
F 2 "" H 9900 4300 60  0000 C CNN
F 3 "" H 9900 4300 60  0000 C CNN
	1    9900 4300
	1    0    0    -1  
$EndComp
$Comp
L R R13
U 1 1 572B79BD
P 9700 3650
F 0 "R13" V 9780 3650 50  0000 C CNN
F 1 "4K7" V 9700 3650 50  0000 C CNN
F 2 "Local:R_0603" V 9630 3650 30  0001 C CNN
F 3 "" H 9700 3650 30  0000 C CNN
	1    9700 3650
	-1   0    0    1   
$EndComp
$Comp
L R R12
U 1 1 572B7B49
P 9500 3650
F 0 "R12" V 9580 3650 50  0000 C CNN
F 1 "4K7" V 9500 3650 50  0000 C CNN
F 2 "Local:R_0603" V 9430 3650 30  0001 C CNN
F 3 "" H 9500 3650 30  0000 C CNN
	1    9500 3650
	-1   0    0    1   
$EndComp
$Comp
L +3V3 #PWR09
U 1 1 572B7EC8
P 9700 3400
F 0 "#PWR09" H 9700 3250 50  0001 C CNN
F 1 "+3V3" H 9700 3540 50  0000 C CNN
F 2 "" H 9700 3400 60  0000 C CNN
F 3 "" H 9700 3400 60  0000 C CNN
	1    9700 3400
	1    0    0    -1  
$EndComp
$Comp
L +3V3 #PWR010
U 1 1 572B7F4B
P 9500 3400
F 0 "#PWR010" H 9500 3250 50  0001 C CNN
F 1 "+3V3" H 9500 3540 50  0000 C CNN
F 2 "" H 9500 3400 60  0000 C CNN
F 3 "" H 9500 3400 60  0000 C CNN
	1    9500 3400
	1    0    0    -1  
$EndComp
Text GLabel 9400 3900 0    47   Input ~ 0
I2C_SDA
Text GLabel 9400 4100 0    47   Input ~ 0
I2C_SCL
$Comp
L RJ12 J5
U 1 1 572B84EE
P 10450 5100
F 0 "J5" V 10050 5100 60  0000 C CNN
F 1 "AIR_SENSOR1" V 10900 4950 60  0000 C CNN
F 2 "Local:RJ12" H 10450 5100 60  0001 C CNN
F 3 "" H 10450 5100 60  0000 C CNN
	1    10450 5100
	0    1    1    0   
$EndComp
$Comp
L GND #PWR011
U 1 1 572B8654
P 9900 5500
F 0 "#PWR011" H 9900 5250 50  0001 C CNN
F 1 "GND" H 9900 5350 50  0000 C CNN
F 2 "" H 9900 5500 60  0000 C CNN
F 3 "" H 9900 5500 60  0000 C CNN
	1    9900 5500
	1    0    0    -1  
$EndComp
Text GLabel 4800 3700 2    47   Input ~ 0
I2C_SDA
Text GLabel 4800 3600 2    47   Input ~ 0
I2C_SCL
$Comp
L DS3231M-SO16 D2
U 1 1 572BA22D
P 8050 5550
F 0 "D2" H 8050 6050 60  0000 C CNN
F 1 "DS3231M-SO16" H 8050 5050 60  0000 C CNN
F 2 "Local:SOIC-16_7.5x10.3mm_Pitch1.27mm" H 8100 5400 60  0001 C CNN
F 3 "" H 8100 5400 60  0000 C CNN
	1    8050 5550
	1    0    0    -1  
$EndComp
$Comp
L GND #PWR012
U 1 1 572BADFA
P 8600 6000
F 0 "#PWR012" H 8600 5750 50  0001 C CNN
F 1 "GND" H 8600 5850 50  0000 C CNN
F 2 "" H 8600 6000 60  0000 C CNN
F 3 "" H 8600 6000 60  0000 C CNN
	1    8600 6000
	1    0    0    -1  
$EndComp
$Comp
L GND #PWR013
U 1 1 572BAE86
P 7500 6000
F 0 "#PWR013" H 7500 5750 50  0001 C CNN
F 1 "GND" H 7500 5850 50  0000 C CNN
F 2 "" H 7500 6000 60  0000 C CNN
F 3 "" H 7500 6000 60  0000 C CNN
	1    7500 6000
	1    0    0    -1  
$EndComp
$Comp
L Battery BT1
U 1 1 572BB141
P 9000 5750
F 0 "BT1" H 9100 5800 50  0000 L CNN
F 1 "3V" H 9100 5700 50  0000 L CNN
F 2 "Local:CR2032_BATTERY" V 9000 5790 60  0001 C CNN
F 3 "" V 9000 5790 60  0000 C CNN
	1    9000 5750
	1    0    0    -1  
$EndComp
$Comp
L GND #PWR014
U 1 1 572BB3A0
P 9000 6000
F 0 "#PWR014" H 9000 5750 50  0001 C CNN
F 1 "GND" H 9000 5850 50  0000 C CNN
F 2 "" H 9000 6000 60  0000 C CNN
F 3 "" H 9000 6000 60  0000 C CNN
	1    9000 6000
	1    0    0    -1  
$EndComp
$Comp
L +3V3 #PWR015
U 1 1 572BB8C6
P 7500 5100
F 0 "#PWR015" H 7500 4950 50  0001 C CNN
F 1 "+3V3" H 7500 5240 50  0000 C CNN
F 2 "" H 7500 5100 60  0000 C CNN
F 3 "" H 7500 5100 60  0000 C CNN
	1    7500 5100
	1    0    0    -1  
$EndComp
Text GLabel 8900 5300 2    47   Input ~ 0
RTC_SDA
Text GLabel 8900 5200 2    47   Input ~ 0
RTC_SCL
$Comp
L R R10
U 1 1 572BC111
P 8600 4950
F 0 "R10" V 8680 4950 50  0000 C CNN
F 1 "4K7" V 8600 4950 50  0000 C CNN
F 2 "Local:R_0603" V 8530 4950 30  0001 C CNN
F 3 "" H 8600 4950 30  0000 C CNN
	1    8600 4950
	-1   0    0    1   
$EndComp
$Comp
L R R11
U 1 1 572BC1E0
P 8800 4950
F 0 "R11" V 8880 4950 50  0000 C CNN
F 1 "4K7" V 8800 4950 50  0000 C CNN
F 2 "Local:R_0603" V 8730 4950 30  0001 C CNN
F 3 "" H 8800 4950 30  0000 C CNN
	1    8800 4950
	-1   0    0    1   
$EndComp
$Comp
L +3V3 #PWR016
U 1 1 572BC2B2
P 8600 4700
F 0 "#PWR016" H 8600 4550 50  0001 C CNN
F 1 "+3V3" H 8600 4840 50  0000 C CNN
F 2 "" H 8600 4700 60  0000 C CNN
F 3 "" H 8600 4700 60  0000 C CNN
	1    8600 4700
	1    0    0    -1  
$EndComp
$Comp
L +3V3 #PWR017
U 1 1 572BC347
P 8800 4700
F 0 "#PWR017" H 8800 4550 50  0001 C CNN
F 1 "+3V3" H 8800 4840 50  0000 C CNN
F 2 "" H 8800 4700 60  0000 C CNN
F 3 "" H 8800 4700 60  0000 C CNN
	1    8800 4700
	1    0    0    -1  
$EndComp
$Comp
L LPH7366 D3
U 1 1 572BF734
P 2100 6300
F 0 "D3" H 2100 6850 60  0000 C CNN
F 1 "LPH7366" H 2100 5800 60  0000 C CNN
F 2 "Local:LPH-7366" H 1900 6200 60  0001 C CNN
F 3 "" H 1900 6200 60  0000 C CNN
	1    2100 6300
	1    0    0    -1  
$EndComp
$Comp
L +3V3 #PWR018
U 1 1 572BF742
P 1100 5800
F 0 "#PWR018" H 1100 5650 60  0001 C CNN
F 1 "+3V3" H 1100 5940 60  0000 C CNN
F 2 "" H 1100 5800 60  0000 C CNN
F 3 "" H 1100 5800 60  0000 C CNN
	1    1100 5800
	1    0    0    -1  
$EndComp
$Comp
L C C15
U 1 1 572BF748
P 1200 6950
F 0 "C15" H 1250 7050 50  0000 L CNN
F 1 "100n" H 1250 6850 50  0000 L CNN
F 2 "Local:C_0603" H 1238 6800 30  0001 C CNN
F 3 "" H 1200 6950 60  0000 C CNN
	1    1200 6950
	1    0    0    -1  
$EndComp
$Comp
L GND #PWR019
U 1 1 572BF75E
P 800 6400
F 0 "#PWR019" H 800 6150 60  0001 C CNN
F 1 "GND" H 800 6250 60  0000 C CNN
F 2 "" H 800 6400 60  0000 C CNN
F 3 "" H 800 6400 60  0000 C CNN
	1    800  6400
	1    0    0    -1  
$EndComp
$Comp
L LED D4
U 1 1 572BF778
P 2900 6600
F 0 "D4" H 2900 6700 50  0000 C CNN
F 1 "LED" H 2900 6500 50  0000 C CNN
F 2 "Local:LED_0603" H 2900 6600 60  0001 C CNN
F 3 "" H 2900 6600 60  0000 C CNN
	1    2900 6600
	0    -1   -1   0   
$EndComp
$Comp
L LED D5
U 1 1 572BF77F
P 3300 6600
F 0 "D5" H 3300 6700 50  0000 C CNN
F 1 "LED" H 3300 6500 50  0000 C CNN
F 2 "Local:LED_0603" H 3300 6600 60  0001 C CNN
F 3 "" H 3300 6600 60  0000 C CNN
	1    3300 6600
	0    -1   -1   0   
$EndComp
$Comp
L LED D6
U 1 1 572BF786
P 3700 6600
F 0 "D6" H 3700 6700 50  0000 C CNN
F 1 "LED" H 3700 6500 50  0000 C CNN
F 2 "Local:LED_0603" H 3700 6600 60  0001 C CNN
F 3 "" H 3700 6600 60  0000 C CNN
	1    3700 6600
	0    -1   -1   0   
$EndComp
$Comp
L LED D7
U 1 1 572BF78D
P 4100 6600
F 0 "D7" H 4100 6700 50  0000 C CNN
F 1 "LED" H 4100 6500 50  0000 C CNN
F 2 "Local:LED_0603" H 4100 6600 60  0001 C CNN
F 3 "" H 4100 6600 60  0000 C CNN
	1    4100 6600
	0    -1   -1   0   
$EndComp
$Comp
L R R15
U 1 1 572BF794
P 2900 6150
F 0 "R15" V 2980 6150 50  0000 C CNN
F 1 "50" V 2907 6151 50  0000 C CNN
F 2 "Local:R_0603" V 2830 6150 30  0001 C CNN
F 3 "" H 2900 6150 30  0000 C CNN
	1    2900 6150
	-1   0    0    1   
$EndComp
$Comp
L R R16
U 1 1 572BF7A6
P 3300 6150
F 0 "R16" V 3380 6150 50  0000 C CNN
F 1 "50" V 3307 6151 50  0000 C CNN
F 2 "Local:R_0603" V 3230 6150 30  0001 C CNN
F 3 "" H 3300 6150 30  0000 C CNN
	1    3300 6150
	-1   0    0    1   
$EndComp
$Comp
L R R17
U 1 1 572BF7AD
P 3700 6150
F 0 "R17" V 3780 6150 50  0000 C CNN
F 1 "50" V 3707 6151 50  0000 C CNN
F 2 "Local:R_0603" V 3630 6150 30  0001 C CNN
F 3 "" H 3700 6150 30  0000 C CNN
	1    3700 6150
	-1   0    0    1   
$EndComp
$Comp
L R R18
U 1 1 572BF7B4
P 4100 6150
F 0 "R18" V 4180 6150 50  0000 C CNN
F 1 "50" V 4107 6151 50  0000 C CNN
F 2 "Local:R_0603" V 4030 6150 30  0001 C CNN
F 3 "" H 4100 6150 30  0000 C CNN
	1    4100 6150
	-1   0    0    1   
$EndComp
$Comp
L Q_NPN_BEC Q1
U 1 1 572BF7C8
P 3400 7200
F 0 "Q1" H 3400 7051 40  0000 R CNN
F 1 "MMBT3904" H 3400 7350 40  0000 R CNN
F 2 "Local:SOT-23" H 3300 7302 29  0001 C CNN
F 3 "" H 3400 7200 60  0000 C CNN
	1    3400 7200
	1    0    0    -1  
$EndComp
$Comp
L GND #PWR020
U 1 1 572BF7D2
P 3500 7500
F 0 "#PWR020" H 3500 7250 60  0001 C CNN
F 1 "GND" H 3500 7350 60  0000 C CNN
F 2 "" H 3500 7500 60  0000 C CNN
F 3 "" H 3500 7500 60  0000 C CNN
	1    3500 7500
	1    0    0    -1  
$EndComp
$Comp
L +3V3 #PWR021
U 1 1 572BF7D8
P 3500 5800
F 0 "#PWR021" H 3500 5650 60  0001 C CNN
F 1 "+3V3" H 3500 5940 60  0000 C CNN
F 2 "" H 3500 5800 60  0000 C CNN
F 3 "" H 3500 5800 60  0000 C CNN
	1    3500 5800
	1    0    0    -1  
$EndComp
$Comp
L R R21
U 1 1 572BF7EB
P 2950 7200
F 0 "R21" V 3030 7200 50  0000 C CNN
F 1 "1K" V 2957 7201 50  0000 C CNN
F 2 "Local:R_0603" V 2880 7200 30  0001 C CNN
F 3 "" H 2950 7200 30  0000 C CNN
	1    2950 7200
	0    -1   -1   0   
$EndComp
Text Notes 1350 7500 0    60   ~ 0
R2-R4 is 0R for white, blue LEDs\nBacklight can be dimmed using PWM
$Comp
L GND #PWR022
U 1 1 572C0525
P 1200 7200
F 0 "#PWR022" H 1200 6950 60  0001 C CNN
F 1 "GND" H 1200 7050 60  0000 C CNN
F 2 "" H 1200 7200 60  0000 C CNN
F 3 "" H 1200 7200 60  0000 C CNN
	1    1200 7200
	1    0    0    -1  
$EndComp
$Comp
L GND #PWR023
U 1 1 572C0806
P 1000 7200
F 0 "#PWR023" H 1000 6950 60  0001 C CNN
F 1 "GND" H 1000 7050 60  0000 C CNN
F 2 "" H 1000 7200 60  0000 C CNN
F 3 "" H 1000 7200 60  0000 C CNN
	1    1000 7200
	1    0    0    -1  
$EndComp
$Comp
L C C12
U 1 1 572C0A05
P 800 6150
F 0 "C12" H 850 6250 50  0000 L CNN
F 1 "100n" H 850 6050 50  0000 L CNN
F 2 "Local:C_0603" H 838 6000 30  0001 C CNN
F 3 "" H 800 6150 60  0000 C CNN
	1    800  6150
	1    0    0    -1  
$EndComp
Text GLabel 1600 6000 0    47   Input ~ 0
LCD_SCLK
Text GLabel 1600 6100 0    47   Input ~ 0
LCD_MOSI
Text GLabel 1600 6200 0    47   Input ~ 0
LCD_D~C
Text GLabel 1600 6300 0    47   Input ~ 0
~LCD_NSS
Text GLabel 1600 6700 0    47   Input ~ 0
~LCD_RES
$Comp
L EC11E E1
U 1 1 572C5512
P 5300 7300
F 0 "E1" H 5100 7550 60  0000 C CNN
F 1 "EC11E" H 5300 7050 60  0000 C CNN
F 2 "Local:EC11E" H 5350 7300 60  0001 C CNN
F 3 "" H 5350 7300 60  0000 C CNN
	1    5300 7300
	1    0    0    -1  
$EndComp
Text GLabel 4700 7200 0    47   Input ~ 0
~ENC_A
Text GLabel 4700 7400 0    47   Input ~ 0
~ENC_B
Text GLabel 5800 7200 2    47   Input ~ 0
~ENC_E
$Comp
L GND #PWR024
U 1 1 572C63CF
P 4800 7500
F 0 "#PWR024" H 4800 7250 60  0001 C CNN
F 1 "GND" H 4800 7350 60  0000 C CNN
F 2 "" H 4800 7500 60  0000 C CNN
F 3 "" H 4800 7500 60  0000 C CNN
	1    4800 7500
	1    0    0    -1  
$EndComp
$Comp
L GND #PWR025
U 1 1 572C648B
P 5800 7500
F 0 "#PWR025" H 5800 7250 60  0001 C CNN
F 1 "GND" H 5800 7350 60  0000 C CNN
F 2 "" H 5800 7500 60  0000 C CNN
F 3 "" H 5800 7500 60  0000 C CNN
	1    5800 7500
	1    0    0    -1  
$EndComp
Text GLabel 4800 2600 2    47   Input ~ 0
~ENC_A
Text GLabel 4800 3200 2    47   Input ~ 0
RTC_SCL
Text GLabel 4800 3300 2    47   Input ~ 0
RTC_SDA
Text GLabel 4800 3900 2    47   Input ~ 0
LCD_SCLK
Text GLabel 4800 4100 2    47   Input ~ 0
LCD_MOSI
Text GLabel 4800 4000 2    47   Input ~ 0
LCD_D~C
Text GLabel 4800 3800 2    47   Input ~ 0
~LCD_NSS
$Comp
L GND #PWR026
U 1 1 572CB5FB
P 700 4300
F 0 "#PWR026" H 700 4050 60  0001 C CNN
F 1 "GND" H 700 4150 60  0000 C CNN
F 2 "" H 700 4300 60  0000 C CNN
F 3 "" H 700 4300 60  0000 C CNN
	1    700  4300
	1    0    0    -1  
$EndComp
$Comp
L C C11
U 1 1 572CB601
P 700 4050
F 0 "C11" H 750 4150 50  0000 L CNN
F 1 "100n" H 750 3950 50  0000 L CNN
F 2 "Local:C_0603" H 738 3900 30  0001 C CNN
F 3 "" H 700 4050 60  0000 C CNN
	1    700  4050
	1    0    0    -1  
$EndComp
Text GLabel 700  3800 1    47   Input ~ 0
RESET
Text GLabel 1200 3000 0    47   Input ~ 0
RESET
Text GLabel 4800 1600 2    47   Input ~ 0
~LCD_RES
Text GLabel 1400 2200 0    47   Input ~ 0
SWDIO
Text GLabel 1400 2300 0    47   Input ~ 0
SWCLK
Text GLabel 1400 1300 0    47   Input ~ 0
~RIF_NSS
Text GLabel 1400 1400 0    47   Input ~ 0
RIF_SCLK
Text GLabel 1400 1500 0    47   Input ~ 0
RIF_MISO
Text GLabel 1400 1600 0    47   Input ~ 0
RIF_MOSI
Text GLabel 4800 2700 2    47   Input ~ 0
~ENC_B
Text GLabel 4800 2800 2    47   Input ~ 0
~ENC_E
Text GLabel 1400 1800 0    47   Input ~ 0
WRT_TX
Text GLabel 1400 1900 0    47   Input ~ 0
WRT_RX
Text GLabel 1400 2000 0    47   Input ~ 0
USB_DM
Text GLabel 1400 2100 0    47   Input ~ 0
USB_DP
Text GLabel 4800 1900 2    47   Input ~ 0
USB_CON
Text GLabel 1400 2600 0    47   Input ~ 0
OSC_IN
Text GLabel 1400 2700 0    47   Input ~ 0
OSC_OUT
Text GLabel 6300 5500 1    47   Input ~ 0
OSC_IN
Text GLabel 6800 5500 1    47   Input ~ 0
OSC_OUT
$Comp
L Crystal Y1
U 1 1 572D32A3
P 6550 5900
F 0 "Y1" H 6550 6050 50  0000 C CNN
F 1 "8MHz" H 6550 5750 50  0000 C CNN
F 2 "Local:Crystal_HC49-U_Vertical" H 6550 5900 60  0001 C CNN
F 3 "" H 6550 5900 60  0000 C CNN
	1    6550 5900
	1    0    0    -1  
$EndComp
$Comp
L C C9
U 1 1 572D3810
P 6300 6150
F 0 "C9" H 6325 6250 50  0000 L CNN
F 1 "27p" H 6325 6050 50  0000 L CNN
F 2 "Local:C_0603" H 6338 6000 30  0001 C CNN
F 3 "" H 6300 6150 60  0000 C CNN
	1    6300 6150
	1    0    0    -1  
$EndComp
$Comp
L C C10
U 1 1 572D3DA3
P 6800 6150
F 0 "C10" H 6825 6250 50  0000 L CNN
F 1 "27p" H 6825 6050 50  0000 L CNN
F 2 "Local:C_0603" H 6838 6000 30  0001 C CNN
F 3 "" H 6800 6150 60  0000 C CNN
	1    6800 6150
	1    0    0    -1  
$EndComp
$Comp
L GND #PWR027
U 1 1 572D43C7
P 6800 6400
F 0 "#PWR027" H 6800 6150 50  0001 C CNN
F 1 "GND" H 6800 6250 50  0000 C CNN
F 2 "" H 6800 6400 60  0000 C CNN
F 3 "" H 6800 6400 60  0000 C CNN
	1    6800 6400
	1    0    0    -1  
$EndComp
$Comp
L GND #PWR028
U 1 1 572D448F
P 6300 6400
F 0 "#PWR028" H 6300 6150 50  0001 C CNN
F 1 "GND" H 6300 6250 50  0000 C CNN
F 2 "" H 6300 6400 60  0000 C CNN
F 3 "" H 6300 6400 60  0000 C CNN
	1    6300 6400
	1    0    0    -1  
$EndComp
$Comp
L R R9
U 1 1 572D481D
P 6550 5600
F 0 "R9" V 6630 5600 50  0000 C CNN
F 1 "1M" V 6557 5601 50  0000 C CNN
F 2 "Local:R_0603" V 6480 5600 30  0001 C CNN
F 3 "" H 6550 5600 30  0000 C CNN
	1    6550 5600
	0    -1   -1   0   
$EndComp
Text GLabel 4800 1300 2    47   Input ~ 0
~RIF_IRQ
Text GLabel 4800 1400 2    47   Input ~ 0
~RIF_PON
$Sheet
S 900  4700 1500 600 
U 572DDD31
F0 "Interface" 47
F1 "interface.sch" 47
$EndSheet
Text GLabel 1400 2400 0    47   Input ~ 0
USB_DET
$Sheet
S 2800 4700 1500 600 
U 572E7923
F0 "Power" 47
F1 "power.sch" 47
$EndSheet
Text GLabel 4800 1700 2    47   Input ~ 0
~VALVE1
Text GLabel 4800 1800 2    47   Input ~ 0
~VALVE2
Text Notes 7800 4800 0    60   ~ 0
RTC Clock
Text GLabel 9800 5300 0    47   Input ~ 0
RTC_SCL
Text GLabel 9800 5100 0    47   Input ~ 0
RTC_SDA
Text GLabel 2700 7200 0    47   Input ~ 0
LCD_BLC
Text GLabel 1400 1700 0    47   Input ~ 0
LCD_BLC
$Comp
L Photores R14
U 1 1 57319F05
P 4700 5550
F 0 "R14" V 4780 5550 50  0000 C CNN
F 1 "1M" V 4910 5550 50  0000 C TNN
F 2 "Local:PHOTORES_5" V 4630 5550 30  0001 C CNN
F 3 "" H 4700 5550 30  0000 C CNN
	1    4700 5550
	-1   0    0    -1  
$EndComp
$Comp
L R R19
U 1 1 5731A1EC
P 4700 6150
F 0 "R19" V 4780 6150 50  0000 C CNN
F 1 "10K" V 4707 6151 50  0000 C CNN
F 2 "Local:R_0603" V 4630 6150 30  0001 C CNN
F 3 "" H 4700 6150 30  0000 C CNN
	1    4700 6150
	-1   0    0    1   
$EndComp
$Comp
L GND #PWR029
U 1 1 5731A48C
P 4700 6400
F 0 "#PWR029" H 4700 6150 50  0001 C CNN
F 1 "GND" H 4700 6250 50  0000 C CNN
F 2 "" H 4700 6400 60  0000 C CNN
F 3 "" H 4700 6400 60  0000 C CNN
	1    4700 6400
	1    0    0    -1  
$EndComp
$Comp
L C C13
U 1 1 5731ADC5
P 5000 6150
F 0 "C13" H 5025 6250 50  0000 L CNN
F 1 "10n" H 5025 6050 50  0000 L CNN
F 2 "Local:C_0603" H 5038 6000 30  0001 C CNN
F 3 "" H 5000 6150 60  0000 C CNN
	1    5000 6150
	1    0    0    -1  
$EndComp
$Comp
L GND #PWR030
U 1 1 5731AF89
P 5000 6400
F 0 "#PWR030" H 5000 6150 60  0001 C CNN
F 1 "GND" H 5000 6250 60  0000 C CNN
F 2 "" H 5000 6400 60  0000 C CNN
F 3 "" H 5000 6400 60  0000 C CNN
	1    5000 6400
	1    0    0    -1  
$EndComp
Text GLabel 4800 1000 2    47   Input ~ 0
BOX_LHT
Text GLabel 5000 5800 1    47   Input ~ 0
BOX_LHT
$Comp
L R R20
U 1 1 5731EE61
P 5500 6150
F 0 "R20" V 5580 6150 50  0000 C CNN
F 1 "4K7" V 5507 6151 50  0000 C CNN
F 2 "Local:R_0603" V 5430 6150 30  0001 C CNN
F 3 "" H 5500 6150 30  0000 C CNN
	1    5500 6150
	-1   0    0    1   
$EndComp
$Comp
L GND #PWR031
U 1 1 5731EE67
P 5500 6400
F 0 "#PWR031" H 5500 6150 50  0001 C CNN
F 1 "GND" H 5500 6250 50  0000 C CNN
F 2 "" H 5500 6400 60  0000 C CNN
F 3 "" H 5500 6400 60  0000 C CNN
	1    5500 6400
	1    0    0    -1  
$EndComp
$Comp
L C C14
U 1 1 5731EE7A
P 5800 6150
F 0 "C14" H 5825 6250 50  0000 L CNN
F 1 "10n" H 5825 6050 50  0000 L CNN
F 2 "Local:C_0603" H 5838 6000 30  0001 C CNN
F 3 "" H 5800 6150 60  0000 C CNN
	1    5800 6150
	1    0    0    -1  
$EndComp
$Comp
L GND #PWR032
U 1 1 5731EE80
P 5800 6400
F 0 "#PWR032" H 5800 6150 60  0001 C CNN
F 1 "GND" H 5800 6250 60  0000 C CNN
F 2 "" H 5800 6400 60  0000 C CNN
F 3 "" H 5800 6400 60  0000 C CNN
	1    5800 6400
	1    0    0    -1  
$EndComp
Text GLabel 5800 5800 1    47   Input ~ 0
BOX_TMP
$Comp
L THERMISTOR TH1
U 1 1 5731EF4C
P 5500 5550
F 0 "TH1" V 5600 5600 50  0000 C CNN
F 1 "10K" V 5400 5550 50  0000 C BNN
F 2 "Local:THERM_RES" H 5500 5550 60  0001 C CNN
F 3 "" H 5500 5550 60  0000 C CNN
	1    5500 5550
	-1   0    0    -1  
$EndComp
Text GLabel 9900 4900 1    47   Input ~ 0
3V3B
Text GLabel 9900 3600 1    47   Input ~ 0
3V3B
$Comp
L MAX485 D11
U 1 1 57565A5A
P 6500 1150
F 0 "D11" H 6500 1450 60  0000 C CNN
F 1 "MAX485" H 6500 850 60  0000 C CNN
F 2 "Local:SOIC-8_3.9x4.9mm_Pitch1.27mm" H 6340 1150 60  0001 C CNN
F 3 "" H 6340 1150 60  0000 C CNN
	1    6500 1150
	1    0    0    -1  
$EndComp
Text GLabel 8200 900  1    47   Input ~ 0
3V3A
$Comp
L +3V3 #PWR033
U 1 1 57568681
P 7000 900
F 0 "#PWR033" H 7000 750 50  0001 C CNN
F 1 "+3V3" H 7000 1040 50  0000 C CNN
F 2 "" H 7000 900 60  0000 C CNN
F 3 "" H 7000 900 60  0000 C CNN
	1    7000 900 
	1    0    0    -1  
$EndComp
Text GLabel 7000 1100 2    47   Input ~ 0
RS485_B
Text GLabel 7000 1200 2    47   Input ~ 0
RS485_A
Text GLabel 6000 1000 0    47   Input ~ 0
RS485_RO
Wire Wire Line
	4700 1100 4800 1100
Wire Wire Line
	4700 900  4800 900 
Wire Wire Line
	4700 1000 4800 1000
Wire Wire Line
	1500 1000 1400 1000
Wire Wire Line
	8300 2600 8100 2600
Wire Wire Line
	8300 2400 8100 2400
Wire Wire Line
	8200 2500 8300 2500
Wire Wire Line
	8200 2200 8200 2500
Wire Wire Line
	8200 2700 8200 2900
Wire Wire Line
	8300 2700 8200 2700
Wire Wire Line
	7000 1300 7000 1400
Wire Wire Line
	10000 2600 9800 2600
Wire Wire Line
	10000 2400 9800 2400
Wire Wire Line
	9900 2500 10000 2500
Wire Wire Line
	9900 2200 9900 2500
Wire Wire Line
	9900 2700 9900 2900
Wire Wire Line
	10000 2700 9900 2700
Wire Wire Line
	9900 1200 10000 1200
Wire Wire Line
	9900 900  9900 1200
Wire Wire Line
	9900 1400 9900 1600
Wire Wire Line
	10000 1400 9900 1400
Wire Wire Line
	8300 1300 8100 1300
Wire Wire Line
	8300 1100 8100 1100
Wire Wire Line
	8200 1200 8300 1200
Wire Wire Line
	8200 900  8200 1200
Wire Wire Line
	8200 1400 8200 1600
Wire Wire Line
	8300 1400 8200 1400
Connection ~ 1300 4100
Wire Wire Line
	1100 4100 1100 4000
Wire Wire Line
	1500 3300 1200 3300
Connection ~ 1300 3700
Wire Wire Line
	1500 3500 1300 3500
Connection ~ 1300 3900
Wire Wire Line
	1300 3700 1500 3700
Wire Wire Line
	1300 3900 1500 3900
Wire Wire Line
	1300 3100 1300 4100
Wire Wire Line
	1100 4100 1500 4100
Connection ~ 1400 3400
Wire Wire Line
	1500 3200 1400 3200
Connection ~ 1400 3600
Wire Wire Line
	1400 3400 1500 3400
Connection ~ 1400 3800
Wire Wire Line
	1400 3600 1500 3600
Connection ~ 1400 4000
Wire Wire Line
	1400 3800 1500 3800
Wire Wire Line
	1400 4000 1500 4000
Wire Wire Line
	1400 2900 1400 4200
Wire Wire Line
	4700 1200 4800 1200
Wire Wire Line
	4700 1300 4800 1300
Wire Wire Line
	4700 1400 4800 1400
Wire Wire Line
	1500 1700 1400 1700
Wire Wire Line
	4800 2600 4700 2600
Wire Wire Line
	4800 2700 4700 2700
Wire Wire Line
	10000 3800 9900 3800
Wire Wire Line
	9900 3800 9900 3600
Wire Wire Line
	10000 4000 9900 4000
Wire Wire Line
	9900 4000 9900 4300
Wire Wire Line
	9400 3900 10000 3900
Wire Wire Line
	9400 4100 10000 4100
Wire Wire Line
	9700 3800 9700 3900
Wire Wire Line
	9500 3800 9500 4100
Wire Wire Line
	9700 3500 9700 3400
Wire Wire Line
	9500 3500 9500 3400
Connection ~ 9700 3900
Connection ~ 9500 4100
Wire Wire Line
	10000 5000 9900 5000
Wire Wire Line
	9900 5000 9900 4900
Wire Wire Line
	10000 5200 9900 5200
Wire Wire Line
	9900 5200 9900 5500
Wire Wire Line
	4800 3200 4700 3200
Wire Wire Line
	4800 3300 4700 3300
Wire Wire Line
	8500 5500 8600 5500
Wire Wire Line
	8600 5500 8600 6000
Wire Wire Line
	8500 5900 8600 5900
Connection ~ 8600 5900
Wire Wire Line
	8500 5800 8600 5800
Connection ~ 8600 5800
Wire Wire Line
	8500 5700 8600 5700
Connection ~ 8600 5700
Wire Wire Line
	8500 5600 8600 5600
Connection ~ 8600 5600
Wire Wire Line
	7600 5600 7500 5600
Wire Wire Line
	7500 5600 7500 6000
Wire Wire Line
	7600 5700 7500 5700
Connection ~ 7500 5700
Wire Wire Line
	7600 5800 7500 5800
Connection ~ 7500 5800
Wire Wire Line
	7600 5900 7500 5900
Connection ~ 7500 5900
Wire Wire Line
	9000 5900 9000 6000
Wire Wire Line
	7600 5500 7400 5500
Wire Wire Line
	7400 5400 7600 5400
Wire Wire Line
	7600 5300 7500 5300
Wire Wire Line
	7500 5300 7500 5100
Wire Wire Line
	8500 5200 8900 5200
Wire Wire Line
	8500 5300 8900 5300
Wire Wire Line
	8600 5200 8600 5100
Connection ~ 8600 5200
Wire Wire Line
	8800 5300 8800 5100
Connection ~ 8800 5300
Wire Wire Line
	8800 4800 8800 4700
Wire Wire Line
	8600 4800 8600 4700
Wire Wire Line
	800  5900 1700 5900
Wire Wire Line
	1100 5800 1100 6400
Wire Wire Line
	1700 6600 1200 6600
Wire Wire Line
	1200 6600 1200 6800
Connection ~ 1100 5900
Wire Wire Line
	1600 6000 1700 6000
Wire Wire Line
	1600 6100 1700 6100
Wire Wire Line
	1600 6200 1700 6200
Wire Wire Line
	1600 6300 1700 6300
Wire Wire Line
	2900 6800 2900 6900
Wire Wire Line
	2900 6900 4100 6900
Wire Wire Line
	3300 6900 3300 6800
Wire Wire Line
	3700 6900 3700 6800
Connection ~ 3300 6900
Wire Wire Line
	4100 6900 4100 6800
Connection ~ 3700 6900
Wire Wire Line
	2900 6300 2900 6400
Wire Wire Line
	3300 6300 3300 6400
Wire Wire Line
	3700 6300 3700 6400
Wire Wire Line
	4100 6300 4100 6400
Wire Wire Line
	2900 6000 2900 5900
Wire Wire Line
	2900 5900 4100 5900
Wire Wire Line
	3300 5900 3300 6000
Wire Wire Line
	3700 5900 3700 6000
Connection ~ 3300 5900
Wire Wire Line
	4100 5900 4100 6000
Connection ~ 3700 5900
Wire Wire Line
	3500 7000 3500 6900
Connection ~ 3500 6900
Wire Wire Line
	3500 7400 3500 7500
Wire Wire Line
	3500 5800 3500 5900
Connection ~ 3500 5900
Wire Wire Line
	2800 7200 2700 7200
Wire Wire Line
	3200 7200 3100 7200
Wire Wire Line
	1100 6400 1700 6400
Wire Wire Line
	1200 7100 1200 7200
Wire Wire Line
	1700 6500 1000 6500
Wire Wire Line
	1000 6500 1000 7200
Wire Wire Line
	800  6300 800  6400
Wire Wire Line
	800  5900 800  6000
Wire Wire Line
	4700 7200 4900 7200
Wire Wire Line
	4700 7400 4900 7400
Wire Wire Line
	5700 7400 5800 7400
Wire Wire Line
	5800 7400 5800 7500
Wire Wire Line
	4900 7300 4800 7300
Wire Wire Line
	4800 7300 4800 7500
Wire Wire Line
	5700 7200 5800 7200
Wire Wire Line
	4800 3600 4700 3600
Wire Wire Line
	4800 3700 4700 3700
Wire Wire Line
	4800 3900 4700 3900
Wire Wire Line
	4800 3800 4700 3800
Wire Wire Line
	4800 4100 4700 4100
Wire Wire Line
	4800 4000 4700 4000
Wire Wire Line
	700  4200 700  4300
Wire Wire Line
	700  3900 700  3800
Wire Wire Line
	1500 3000 1200 3000
Wire Wire Line
	1500 3100 1300 3100
Connection ~ 1300 3500
Wire Wire Line
	1500 2900 1400 2900
Connection ~ 1400 3200
Wire Wire Line
	4800 3500 4700 3500
Wire Wire Line
	1500 2200 1400 2200
Wire Wire Line
	1500 2300 1400 2300
Wire Wire Line
	1500 1300 1400 1300
Wire Wire Line
	1500 1400 1400 1400
Wire Wire Line
	1500 1500 1400 1500
Wire Wire Line
	1500 1600 1400 1600
Wire Wire Line
	1500 1100 1400 1100
Wire Wire Line
	1500 1200 1400 1200
Wire Wire Line
	1500 1800 1400 1800
Wire Wire Line
	1500 1900 1400 1900
Wire Wire Line
	1500 2000 1400 2000
Wire Wire Line
	1500 2100 1400 2100
Wire Wire Line
	1500 2400 1400 2400
Wire Wire Line
	1500 2600 1400 2600
Wire Wire Line
	1500 2700 1400 2700
Wire Wire Line
	6300 5500 6300 6000
Wire Wire Line
	6300 5900 6400 5900
Wire Wire Line
	6800 5500 6800 6000
Wire Wire Line
	6800 5900 6700 5900
Connection ~ 6800 5900
Connection ~ 6300 5900
Wire Wire Line
	6300 6300 6300 6400
Wire Wire Line
	6800 6300 6800 6400
Wire Wire Line
	6800 5600 6700 5600
Connection ~ 6800 5600
Wire Wire Line
	6400 5600 6300 5600
Connection ~ 6300 5600
Wire Wire Line
	4800 2900 4700 2900
Wire Wire Line
	4800 2800 4700 2800
Wire Wire Line
	4800 1500 4700 1500
Wire Wire Line
	4800 1600 4700 1600
Wire Wire Line
	4800 1700 4700 1700
Wire Wire Line
	4800 1800 4700 1800
Wire Wire Line
	10000 5100 9800 5100
Wire Wire Line
	10000 5300 9800 5300
Wire Wire Line
	4800 1900 4700 1900
Wire Wire Line
	1500 900  1400 900 
Wire Wire Line
	4800 3400 4700 3400
Wire Wire Line
	4700 5200 4700 5300
Wire Wire Line
	4700 5800 4700 6000
Wire Wire Line
	4700 6300 4700 6400
Wire Wire Line
	4700 5900 5000 5900
Wire Wire Line
	5000 5800 5000 6000
Connection ~ 4700 5900
Wire Wire Line
	5000 6300 5000 6400
Connection ~ 5000 5900
Wire Wire Line
	5500 5200 5500 5300
Wire Wire Line
	5500 5800 5500 6000
Wire Wire Line
	5500 6300 5500 6400
Wire Wire Line
	5500 5900 5800 5900
Wire Wire Line
	5800 5800 5800 6000
Connection ~ 5500 5900
Wire Wire Line
	5800 6300 5800 6400
Connection ~ 5800 5900
Wire Wire Line
	7000 1300 6900 1300
Wire Wire Line
	6900 1000 7000 1000
Wire Wire Line
	7000 1000 7000 900 
Wire Wire Line
	6900 1100 7000 1100
Wire Wire Line
	6900 1200 7000 1200
Wire Wire Line
	6100 1000 6000 1000
Wire Wire Line
	6100 1100 6000 1100
Wire Wire Line
	6100 1200 6000 1200
Wire Wire Line
	6100 1300 6000 1300
Text GLabel 6000 1300 0    47   Input ~ 0
RS485_DI
Text GLabel 6000 1100 0    47   Input ~ 0
~RS485_RE
Text GLabel 6000 1200 0    47   Input ~ 0
RS485_DE
Text GLabel 1400 1200 0    47   Input ~ 0
RS485_RO
Text GLabel 1400 1100 0    47   Input ~ 0
RS485_DI
Text GLabel 1400 1000 0    47   Input ~ 0
RS485_DE
Text GLabel 1400 900  0    47   Input ~ 0
~RS485_RE
Text GLabel 8100 1100 0    47   Input ~ 0
RS485_B
Text GLabel 8100 1300 0    47   Input ~ 0
RS485_A
Wire Wire Line
	10000 1100 9800 1100
Wire Wire Line
	10000 1300 9800 1300
Text GLabel 9800 1100 0    47   Input ~ 0
RS485_B
Text GLabel 9800 1300 0    47   Input ~ 0
RS485_A
Text GLabel 9900 900  1    47   Input ~ 0
3V3A
Text GLabel 9800 2400 0    47   Input ~ 0
LIGHT_1
Text GLabel 9800 2600 0    47   Input ~ 0
LIGHT_2
Text GLabel 8100 2400 0    47   Input ~ 0
HEAT_1
Text GLabel 8100 2600 0    47   Input ~ 0
HEAT_2
Text GLabel 4800 3400 2    47   Input ~ 0
LIGHT_1
Text GLabel 4800 3500 2    47   Input ~ 0
LIGHT_2
Text GLabel 4800 2000 2    47   Input ~ 0
HEAT_1
Text GLabel 4800 2100 2    47   Input ~ 0
HEAT_2
Wire Wire Line
	4800 2000 4700 2000
Wire Wire Line
	4800 2100 4700 2100
Wire Wire Line
	4800 3000 4700 3000
Wire Wire Line
	4800 3100 4700 3100
$Comp
L ULN2003A U4
U 1 1 57576C54
P 6650 4200
F 0 "U4" H 6650 4750 70  0000 C CNN
F 1 "ULN2003A" V 6650 4200 70  0000 C CNN
F 2 "Local:SOIC-16_3.9x9.9mm_Pitch1.27mm" H 6650 4200 60  0001 C CNN
F 3 "" H 6650 4200 60  0000 C CNN
	1    6650 4200
	1    0    0    -1  
$EndComp
$Comp
L +12V #PWR034
U 1 1 57576C5B
P 7500 3800
F 0 "#PWR034" H 7500 3650 50  0001 C CNN
F 1 "+12V" H 7500 3940 50  0000 C CNN
F 2 "" H 7500 3800 60  0000 C CNN
F 3 "" H 7500 3800 60  0000 C CNN
	1    7500 3800
	1    0    0    -1  
$EndComp
Text GLabel 5800 3800 0    47   Input ~ 0
~VALVE1
Text GLabel 5800 4200 0    47   Input ~ 0
~VALVE2
$Comp
L CONN_01X02 P4
U 1 1 57576C63
P 7800 3950
F 0 "P4" H 7800 4100 50  0000 C CNN
F 1 "VALVE1" V 7900 3950 50  0000 C CNN
F 2 "Local:2PIN_HEAD" H 7800 3950 60  0001 C CNN
F 3 "" H 7800 3950 60  0000 C CNN
	1    7800 3950
	1    0    0    1   
$EndComp
$Comp
L CONN_01X02 P5
U 1 1 57576C6A
P 7800 4350
F 0 "P5" H 7800 4500 50  0000 C CNN
F 1 "VALVE2" V 7900 4350 50  0000 C CNN
F 2 "Local:2PIN_HEAD" H 7800 4350 60  0001 C CNN
F 3 "" H 7800 4350 60  0000 C CNN
	1    7800 4350
	1    0    0    1   
$EndComp
$Comp
L GND #PWR035
U 1 1 57576C71
P 5900 4100
F 0 "#PWR035" H 5900 3850 50  0001 C CNN
F 1 "GND" V 5900 3900 50  0000 C CNN
F 2 "" H 5900 4100 60  0000 C CNN
F 3 "" H 5900 4100 60  0000 C CNN
	1    5900 4100
	0    1    1    0   
$EndComp
Wire Wire Line
	7500 4600 7300 4600
Wire Wire Line
	7500 3800 7500 4600
Wire Wire Line
	7300 3900 7400 3900
Wire Wire Line
	7400 3800 7400 4000
Wire Wire Line
	7400 3800 7300 3800
Wire Wire Line
	7300 4300 7400 4300
Wire Wire Line
	7400 4200 7400 4400
Wire Wire Line
	7300 4200 7400 4200
Wire Wire Line
	5800 3800 6000 3800
Wire Wire Line
	5900 3800 5900 4000
Wire Wire Line
	5900 3900 6000 3900
Wire Wire Line
	5800 4200 6000 4200
Wire Wire Line
	5900 4200 5900 4400
Wire Wire Line
	5900 4300 6000 4300
Wire Wire Line
	5900 4400 6000 4400
Connection ~ 5900 4300
Wire Wire Line
	7300 4400 7600 4400
Connection ~ 7400 4300
Connection ~ 5900 4200
Connection ~ 5900 3800
Connection ~ 7400 4400
Wire Wire Line
	5900 4000 6000 4000
Connection ~ 5900 3900
Wire Wire Line
	7300 4000 7600 4000
Connection ~ 7400 3900
Connection ~ 7400 4000
Wire Wire Line
	7600 3900 7500 3900
Connection ~ 7500 3900
Wire Wire Line
	7600 4300 7500 4300
Connection ~ 7500 4300
Wire Wire Line
	6000 4100 5900 4100
Wire Wire Line
	7300 4100 7400 4100
NoConn ~ 7400 4100
Wire Wire Line
	7600 5200 7400 5200
Text GLabel 7400 5200 0    47   Input ~ 0
RTC_SIG
Text GLabel 7400 5400 0    47   Input ~ 0
~RTC_INT
Text GLabel 4800 2200 2    47   Input ~ 0
RTC_SIG
Text GLabel 4800 2300 2    47   Input ~ 0
~RTC_INT
Wire Wire Line
	4700 2300 4800 2300
Wire Wire Line
	4800 2400 4700 2400
Wire Wire Line
	4700 2200 4800 2200
$Comp
L C C3
U 1 1 57695F6D
P 9300 5750
F 0 "C3" H 9325 5850 50  0000 L CNN
F 1 "100n" H 9325 5650 50  0000 L CNN
F 2 "Local:C_0603" H 9338 5600 30  0001 C CNN
F 3 "" H 9300 5750 60  0000 C CNN
	1    9300 5750
	1    0    0    -1  
$EndComp
$Comp
L +3V3 #PWR036
U 1 1 57696143
P 9300 5500
F 0 "#PWR036" H 9300 5350 50  0001 C CNN
F 1 "+3V3" H 9300 5640 50  0000 C CNN
F 2 "" H 9300 5500 60  0000 C CNN
F 3 "" H 9300 5500 60  0000 C CNN
	1    9300 5500
	1    0    0    -1  
$EndComp
$Comp
L GND #PWR037
U 1 1 576961CF
P 9300 6000
F 0 "#PWR037" H 9300 5750 50  0001 C CNN
F 1 "GND" H 9300 5850 50  0000 C CNN
F 2 "" H 9300 6000 60  0000 C CNN
F 3 "" H 9300 6000 60  0000 C CNN
	1    9300 6000
	1    0    0    -1  
$EndComp
Wire Wire Line
	9300 5600 9300 5500
Wire Wire Line
	9300 6000 9300 5900
$Comp
L C C4
U 1 1 5769714F
P 7500 1150
F 0 "C4" H 7525 1250 50  0000 L CNN
F 1 "100n" H 7525 1050 50  0000 L CNN
F 2 "Local:C_0603" H 7538 1000 30  0001 C CNN
F 3 "" H 7500 1150 60  0000 C CNN
	1    7500 1150
	1    0    0    -1  
$EndComp
$Comp
L +3V3 #PWR038
U 1 1 57697155
P 7500 900
F 0 "#PWR038" H 7500 750 50  0001 C CNN
F 1 "+3V3" H 7500 1040 50  0000 C CNN
F 2 "" H 7500 900 60  0000 C CNN
F 3 "" H 7500 900 60  0000 C CNN
	1    7500 900 
	1    0    0    -1  
$EndComp
$Comp
L GND #PWR039
U 1 1 5769715B
P 7500 1400
F 0 "#PWR039" H 7500 1150 50  0001 C CNN
F 1 "GND" H 7500 1250 50  0000 C CNN
F 2 "" H 7500 1400 60  0000 C CNN
F 3 "" H 7500 1400 60  0000 C CNN
	1    7500 1400
	1    0    0    -1  
$EndComp
Wire Wire Line
	7500 1000 7500 900 
Wire Wire Line
	7500 1400 7500 1300
$Comp
L +3V3 #PWR040
U 1 1 57697A63
P 9900 2200
F 0 "#PWR040" H 9900 2050 50  0001 C CNN
F 1 "+3V3" H 9900 2340 50  0000 C CNN
F 2 "" H 9900 2200 60  0000 C CNN
F 3 "" H 9900 2200 60  0000 C CNN
	1    9900 2200
	1    0    0    -1  
$EndComp
$Comp
L +3V3 #PWR041
U 1 1 57697AF2
P 8200 2200
F 0 "#PWR041" H 8200 2050 50  0001 C CNN
F 1 "+3V3" H 8200 2340 50  0000 C CNN
F 2 "" H 8200 2200 60  0000 C CNN
F 3 "" H 8200 2200 60  0000 C CNN
	1    8200 2200
	1    0    0    -1  
$EndComp
Text GLabel 7400 5500 0    47   Input ~ 0
~RTC_RST
Text GLabel 4800 2400 2    47   Input ~ 0
~RTC_RST
Text GLabel 4800 3100 2    47   Input ~ 0
~WRT_PON
Text GLabel 4800 3000 2    47   Input ~ 0
~WRT_RES
Wire Wire Line
	1700 6700 1600 6700
Wire Wire Line
	1500 2800 1400 2800
$Comp
L R R3
U 1 1 576B61D7
P 8750 5400
F 0 "R3" V 8830 5400 50  0000 C CNN
F 1 "0" V 8750 5400 50  0000 C CNN
F 2 "Local:R_0603" V 8680 5400 30  0001 C CNN
F 3 "" H 8750 5400 30  0000 C CNN
	1    8750 5400
	0    -1   -1   0   
$EndComp
Wire Wire Line
	8500 5400 8600 5400
Wire Wire Line
	8900 5400 9000 5400
Wire Wire Line
	9000 5400 9000 5600
$Comp
L +3V3 #PWR042
U 1 1 576B7532
P 5500 5200
F 0 "#PWR042" H 5500 5050 50  0001 C CNN
F 1 "+3V3" H 5500 5340 50  0000 C CNN
F 2 "" H 5500 5200 60  0000 C CNN
F 3 "" H 5500 5200 60  0000 C CNN
	1    5500 5200
	1    0    0    -1  
$EndComp
$Comp
L +3V3 #PWR043
U 1 1 576B75C7
P 4700 5200
F 0 "#PWR043" H 4700 5050 50  0001 C CNN
F 1 "+3V3" H 4700 5340 50  0000 C CNN
F 2 "" H 4700 5200 60  0000 C CNN
F 3 "" H 4700 5200 60  0000 C CNN
	1    4700 5200
	1    0    0    -1  
$EndComp
Text Notes 5550 3450 0    60   ~ 0
SPI1: RIF\nSPI2: LCD\n\nI2C1: RTC+HS1\nI2C2: HS2\n\nUART1: WRT\nUART2: RS485\n\nADC10: BOX_TMP\nADC11: BOX_LHT\n\nTIM1_CH1: LCD_BLC\n\nTIM3 - REMAP!\nTIM3_CH3: VALVE1\nTIM3_CH4: VALVE2\n\nTIM4_CH3: LIGHT1\nTIM4_CH4: LIGHT2
Text GLabel 4800 1500 2    47   Input ~ 0
LCD_SCLK
Text Notes 6700 2850 0    60   ~ 0
EXT_IRQs\n\nPB0: ~ENC_A\nPB1: ~ENC_B\nPB2: ~ENC_E\n\nPC4: ~RIF_IRQ\nPC14: ~RTC_INT\n\nPA15: USB_DET
Text Notes 5200 1550 0    60   ~ 0
simplify route!
$EndSCHEMATC
