EESchema Schematic File Version 2
LIBS:power
LIBS:device
LIBS:transistors
LIBS:conn
LIBS:linear
LIBS:regul
LIBS:74xx
LIBS:cmos4000
LIBS:adc-dac
LIBS:memory
LIBS:xilinx
LIBS:microcontrollers
LIBS:dsp
LIBS:microchip
LIBS:analog_switches
LIBS:motorola
LIBS:texas
LIBS:intel
LIBS:audio
LIBS:interface
LIBS:digital-audio
LIBS:philips
LIBS:display
LIBS:cypress
LIBS:siliconi
LIBS:opto
LIBS:atmel
LIBS:contrib
LIBS:valves
LIBS:stm32
LIBS:iface
LIBS:project-cache
EELAYER 25 0
EELAYER END
$Descr A4 11693 8268
encoding utf-8
Sheet 1 1
Title ""
Date ""
Rev ""
Comp ""
Comment1 ""
Comment2 ""
Comment3 ""
Comment4 ""
$EndDescr
$Comp
L STM32F030F4P6 U1
U 1 1 575C3A7A
P 7800 1600
F 0 "U1" H 7800 2400 60  0000 C CNN
F 1 "STM32F030F4P6" H 8800 1000 60  0000 C CNN
F 2 "Local:TSSOP-20_4.4x6.5mm_Pitch0.65mm" H 8000 1600 60  0001 C CNN
F 3 "" H 8000 1600 60  0000 C CNN
	1    7800 1600
	1    0    0    -1  
$EndComp
$Comp
L SWD J1
U 1 1 575C3C07
P 1600 1450
F 0 "J1" H 1600 1750 60  0000 C CNN
F 1 "SWD" H 1600 1150 60  0000 C CNN
F 2 "Local:SWD_EDGE" H 1400 1450 60  0001 C CNN
F 3 "" H 1400 1450 60  0000 C CNN
	1    1600 1450
	1    0    0    -1  
$EndComp
Wire Wire Line
	1200 1600 1100 1600
Wire Wire Line
	1100 1600 1100 1700
Wire Wire Line
	1200 1400 1100 1400
Wire Wire Line
	1100 1400 1100 1200
Wire Wire Line
	1200 1300 1000 1300
Wire Wire Line
	1200 1500 1000 1500
$Comp
L GND #PWR01
U 1 1 575C3D65
P 1100 1700
F 0 "#PWR01" H 1100 1450 50  0001 C CNN
F 1 "GND" H 1100 1550 50  0000 C CNN
F 2 "" H 1100 1700 50  0000 C CNN
F 3 "" H 1100 1700 50  0000 C CNN
	1    1100 1700
	1    0    0    -1  
$EndComp
$Comp
L +3V3 #PWR02
U 1 1 575C3D7D
P 1100 1200
F 0 "#PWR02" H 1100 1050 50  0001 C CNN
F 1 "+3V3" H 1100 1340 50  0000 C CNN
F 2 "" H 1100 1200 50  0000 C CNN
F 3 "" H 1100 1200 50  0000 C CNN
	1    1100 1200
	1    0    0    -1  
$EndComp
Text GLabel 1000 1300 0    47   Input ~ 0
SWDIO
Text GLabel 1000 1500 0    47   Input ~ 0
SWCLK
Text GLabel 5500 2100 0    47   Input ~ 0
SWDIO
Text GLabel 5500 2200 0    47   Input ~ 0
SWCLK
Wire Wire Line
	5600 2100 5500 2100
Wire Wire Line
	5600 2200 5500 2200
Wire Wire Line
	10000 1500 10100 1500
Text GLabel 10100 1500 2    47   Input ~ 0
~RESET
$Comp
L GND #PWR03
U 1 1 575C3EB2
P 10100 2300
F 0 "#PWR03" H 10100 2050 50  0001 C CNN
F 1 "GND" H 10100 2150 50  0000 C CNN
F 2 "" H 10100 2300 50  0000 C CNN
F 3 "" H 10100 2300 50  0000 C CNN
	1    10100 2300
	1    0    0    -1  
$EndComp
Wire Wire Line
	10000 2200 10100 2200
Wire Wire Line
	10100 2200 10100 2300
Wire Wire Line
	10000 1900 10100 1900
Wire Wire Line
	10000 2000 10100 2000
Text GLabel 10100 2000 2    47   Input ~ 0
+3V3A
Wire Wire Line
	10000 1700 10100 1700
$Comp
L GND #PWR04
U 1 1 575C3F22
P 10100 1700
F 0 "#PWR04" H 10100 1450 50  0001 C CNN
F 1 "GND" V 10100 1500 50  0000 C CNN
F 2 "" H 10100 1700 50  0000 C CNN
F 3 "" H 10100 1700 50  0000 C CNN
	1    10100 1700
	0    -1   -1   0   
$EndComp
$Comp
L +3V3 #PWR05
U 1 1 575C3F85
P 10100 1900
F 0 "#PWR05" H 10100 1750 50  0001 C CNN
F 1 "+3V3" V 10100 2100 50  0000 C CNN
F 2 "" H 10100 1900 50  0000 C CNN
F 3 "" H 10100 1900 50  0000 C CNN
	1    10100 1900
	0    1    1    0   
$EndComp
Text GLabel 2600 5300 1    47   Input ~ 0
+3V3A
$Comp
L LED D2
U 1 1 575C53F4
P 5500 3300
F 0 "D2" H 5500 3400 50  0000 C CNN
F 1 "RED_LED" H 5500 3200 50  0000 C CNN
F 2 "Local:LED_0603" H 5500 3300 60  0001 C CNN
F 3 "" H 5500 3300 60  0000 C CNN
	1    5500 3300
	0    -1   -1   0   
$EndComp
$Comp
L R R1
U 1 1 575C53FB
P 5500 3750
F 0 "R1" V 5580 3750 50  0000 C CNN
F 1 "1K" V 5507 3751 50  0000 C CNN
F 2 "Local:R_0603" V 5430 3750 30  0001 C CNN
F 3 "" H 5500 3750 30  0000 C CNN
	1    5500 3750
	-1   0    0    1   
$EndComp
Wire Wire Line
	5500 3000 5500 3100
Wire Wire Line
	5500 3500 5500 3600
Wire Wire Line
	5500 3900 5500 4000
$Comp
L RJ12 J2
U 1 1 575C5405
P 6450 5600
F 0 "J2" H 6650 6100 60  0000 C CNN
F 1 "RJ12" H 6300 6100 60  0000 C CNN
F 2 "Local:RJ12" H 6450 5600 60  0001 C CNN
F 3 "" H 6450 5600 60  0000 C CNN
	1    6450 5600
	0    1    1    0   
$EndComp
$Comp
L Photores R3
U 1 1 575C540C
P 2000 3350
F 0 "R3" V 1900 3350 50  0000 C CNN
F 1 "1M" V 2100 3350 50  0000 C TNN
F 2 "Local:PHOTORES_5" V 1930 3350 30  0001 C CNN
F 3 "" H 2000 3350 30  0000 C CNN
	1    2000 3350
	1    0    0    -1  
$EndComp
$Comp
L R R6
U 1 1 575C5413
P 2000 3950
F 0 "R6" V 2080 3950 50  0000 C CNN
F 1 "10K" V 2007 3951 50  0000 C CNN
F 2 "Local:R_0603" V 1930 3950 30  0001 C CNN
F 3 "" H 2000 3950 30  0000 C CNN
	1    2000 3950
	-1   0    0    -1  
$EndComp
$Comp
L GND #PWR06
U 1 1 575C541A
P 2000 4300
F 0 "#PWR06" H 2000 4050 60  0001 C CNN
F 1 "GND" H 2000 4150 60  0000 C CNN
F 2 "" H 2000 4300 60  0000 C CNN
F 3 "" H 2000 4300 60  0000 C CNN
	1    2000 4300
	1    0    0    -1  
$EndComp
Wire Wire Line
	2000 3600 2000 3800
Wire Wire Line
	2000 4100 2000 4300
Wire Wire Line
	2000 3000 2000 3100
$Comp
L C C3
U 1 1 575C5423
P 1700 3950
F 0 "C3" H 1725 4050 50  0000 L CNN
F 1 "10n" H 1725 3850 50  0000 L CNN
F 2 "Local:C_0603" H 1738 3800 30  0001 C CNN
F 3 "" H 1700 3950 60  0000 C CNN
	1    1700 3950
	1    0    0    -1  
$EndComp
Wire Wire Line
	1700 3700 2100 3700
Wire Wire Line
	1700 3700 1700 3800
Connection ~ 2000 3700
Wire Wire Line
	2000 4200 1700 4200
Wire Wire Line
	1700 4200 1700 4100
Connection ~ 2000 4200
Text GLabel 2100 3700 2    47   Input ~ 0
PHOTO_IN
Text GLabel 9300 3900 2    47   Input ~ 0
HUMIDITY_IN
$Comp
L VDD #PWR07
U 1 1 575C5440
P 5900 5300
F 0 "#PWR07" H 5900 5150 50  0001 C CNN
F 1 "VDD" H 5900 5450 50  0000 C CNN
F 2 "" H 5900 5300 60  0000 C CNN
F 3 "" H 5900 5300 60  0000 C CNN
	1    5900 5300
	1    0    0    -1  
$EndComp
Wire Wire Line
	6000 5600 5900 5600
Wire Wire Line
	5900 5600 5900 5300
Wire Wire Line
	6000 5800 5900 5800
Wire Wire Line
	5900 5800 5900 6000
Wire Wire Line
	6000 5500 5800 5500
Wire Wire Line
	6000 5700 5800 5700
$Comp
L R R7
U 1 1 575C544E
P 3200 3950
F 0 "R7" V 3280 3950 50  0000 C CNN
F 1 "4K7" V 3207 3951 50  0000 C CNN
F 2 "Local:R_0603" V 3130 3950 30  0001 C CNN
F 3 "" H 3200 3950 30  0000 C CNN
	1    3200 3950
	-1   0    0    -1  
$EndComp
$Comp
L THERMISTOR TH1
U 1 1 575C5455
P 3200 3350
F 0 "TH1" V 3300 3400 50  0000 C CNN
F 1 "10K" V 3100 3350 50  0000 C BNN
F 2 "Local:THERM_RES" H 3200 3350 60  0001 C CNN
F 3 "" H 3200 3350 60  0000 C CNN
	1    3200 3350
	-1   0    0    -1  
$EndComp
Wire Wire Line
	3200 3100 3200 3000
$Comp
L VDD #PWR08
U 1 1 575C545D
P 5000 5300
F 0 "#PWR08" H 5000 5150 50  0001 C CNN
F 1 "VDD" H 5000 5450 50  0000 C CNN
F 2 "" H 5000 5300 60  0000 C CNN
F 3 "" H 5000 5300 60  0000 C CNN
	1    5000 5300
	1    0    0    -1  
$EndComp
$Comp
L INDUCTOR_SMALL L2
U 1 1 575C5469
P 4650 5400
F 0 "L2" H 4650 5500 50  0000 C CNN
F 1 "470R" H 4650 5350 50  0000 C CNN
F 2 "Local:C_0805" H 4650 5400 60  0001 C CNN
F 3 "" H 4650 5400 60  0000 C CNN
	1    4650 5400
	1    0    0    -1  
$EndComp
$Comp
L C C9
U 1 1 575C5470
P 3700 5650
F 0 "C9" H 3725 5750 50  0000 L CNN
F 1 "100n" H 3725 5550 50  0000 L CNN
F 2 "Local:C_0603" H 3738 5500 30  0001 C CNN
F 3 "" H 3700 5650 60  0000 C CNN
	1    3700 5650
	1    0    0    -1  
$EndComp
Wire Wire Line
	3700 5400 4400 5400
Wire Wire Line
	4300 5300 4300 5500
Connection ~ 4300 5400
Wire Wire Line
	4900 5400 5000 5400
Wire Wire Line
	5000 5400 5000 5300
Wire Wire Line
	4300 5800 4300 6000
$Comp
L GND #PWR09
U 1 1 575C547D
P 4300 6000
F 0 "#PWR09" H 4300 5750 60  0001 C CNN
F 1 "GND" H 4300 5850 60  0000 C CNN
F 2 "" H 4300 6000 60  0000 C CNN
F 3 "" H 4300 6000 60  0000 C CNN
	1    4300 6000
	1    0    0    -1  
$EndComp
Wire Wire Line
	3700 5400 3700 5500
Wire Wire Line
	2300 5900 2600 5900
Wire Wire Line
	3700 5900 4300 5900
Connection ~ 4300 5900
Wire Wire Line
	3200 3600 3200 3800
Wire Wire Line
	3100 3700 3500 3700
Connection ~ 3200 3700
Wire Wire Line
	3200 4100 3200 4300
Wire Wire Line
	3200 4200 3500 4200
$Comp
L C C4
U 1 1 575C5493
P 3500 3950
F 0 "C4" H 3525 4050 50  0000 L CNN
F 1 "10n" H 3525 3850 50  0000 L CNN
F 2 "Local:C_0603" H 3538 3800 30  0001 C CNN
F 3 "" H 3500 3950 60  0000 C CNN
	1    3500 3950
	1    0    0    -1  
$EndComp
Connection ~ 3200 4200
$Comp
L GND #PWR010
U 1 1 575C549B
P 3200 4300
F 0 "#PWR010" H 3200 4050 60  0001 C CNN
F 1 "GND" H 3200 4150 60  0000 C CNN
F 2 "" H 3200 4300 60  0000 C CNN
F 3 "" H 3200 4300 60  0000 C CNN
	1    3200 4300
	1    0    0    -1  
$EndComp
Wire Wire Line
	3500 3700 3500 3800
Wire Wire Line
	3500 4200 3500 4100
Text GLabel 3100 3700 0    47   Input ~ 0
THERMO_IN
$Comp
L R R4
U 1 1 575C54B7
P 7050 4000
F 0 "R4" V 7130 4000 50  0000 C CNN
F 1 "10K" V 7057 4001 50  0000 C CNN
F 2 "Local:R_0603" V 6980 4000 30  0001 C CNN
F 3 "" H 7050 4000 30  0000 C CNN
	1    7050 4000
	0    -1   -1   0   
$EndComp
$Comp
L C C2
U 1 1 575C54BE
P 7450 4000
F 0 "C2" V 7300 3950 50  0000 L CNN
F 1 "10n" V 7600 3950 50  0000 L CNN
F 2 "Local:C_0603" H 7488 3850 30  0001 C CNN
F 3 "" H 7450 4000 60  0000 C CNN
	1    7450 4000
	0    1    1    0   
$EndComp
Wire Wire Line
	7300 4000 7200 4000
Wire Wire Line
	7600 4000 7800 4000
Wire Wire Line
	6900 4000 6800 4000
Text GLabel 6800 4000 0    47   Input ~ 0
HUMIDITY_MOD
Text GLabel 7700 3900 1    47   Input ~ 0
GROUND
Wire Wire Line
	7700 3900 7700 4000
Connection ~ 7700 4000
Wire Wire Line
	8400 3900 8800 3900
$Comp
L R R8
U 1 1 575C54DC
P 8400 4150
F 0 "R8" V 8480 4150 50  0000 C CNN
F 1 "680K" V 8407 4151 50  0000 C CNN
F 2 "Local:R_0603" V 8330 4150 30  0001 C CNN
F 3 "" H 8400 4150 30  0000 C CNN
	1    8400 4150
	-1   0    0    1   
$EndComp
Wire Wire Line
	8400 3600 8400 4000
Wire Wire Line
	8400 4300 8400 4400
Wire Wire Line
	8000 4300 8000 4400
$Comp
L GND #PWR011
U 1 1 575C54E6
P 8000 4400
F 0 "#PWR011" H 8000 4150 60  0001 C CNN
F 1 "GND" H 8000 4250 60  0000 C CNN
F 2 "" H 8000 4400 60  0000 C CNN
F 3 "" H 8000 4400 60  0000 C CNN
	1    8000 4400
	1    0    0    -1  
$EndComp
$Comp
L GND #PWR012
U 1 1 575C54EC
P 8400 4400
F 0 "#PWR012" H 8400 4150 60  0001 C CNN
F 1 "GND" H 8400 4250 60  0000 C CNN
F 2 "" H 8400 4400 60  0000 C CNN
F 3 "" H 8400 4400 60  0000 C CNN
	1    8400 4400
	1    0    0    -1  
$EndComp
$Comp
L C C5
U 1 1 575C54F2
P 8700 4150
F 0 "C5" H 8725 4250 50  0000 L CNN
F 1 "10n" H 8725 4050 50  0000 L CNN
F 2 "Local:C_0603" H 8738 4000 30  0001 C CNN
F 3 "" H 8700 4150 60  0000 C CNN
	1    8700 4150
	1    0    0    -1  
$EndComp
Wire Wire Line
	8700 4300 8700 4400
$Comp
L GND #PWR013
U 1 1 575C54FA
P 8700 4400
F 0 "#PWR013" H 8700 4150 60  0001 C CNN
F 1 "GND" H 8700 4250 60  0000 C CNN
F 2 "" H 8700 4400 60  0000 C CNN
F 3 "" H 8700 4400 60  0000 C CNN
	1    8700 4400
	1    0    0    -1  
$EndComp
Wire Wire Line
	8700 3900 8700 4000
Connection ~ 8400 3900
Connection ~ 8700 3900
Wire Wire Line
	7800 4900 7700 4900
Text GLabel 7700 4900 0    47   Input ~ 0
GROUND
$Comp
L CONN_01X02 P1
U 1 1 575C5505
P 8000 4950
F 0 "P1" H 8000 5100 50  0000 C CNN
F 1 "GROUND" V 8100 4950 50  0000 C CNN
F 2 "Local:2PIN_HEAD" H 8000 4950 60  0001 C CNN
F 3 "" H 8000 4950 60  0000 C CNN
	1    8000 4950
	1    0    0    -1  
$EndComp
Wire Wire Line
	7700 5000 7700 5100
$Comp
L GND #PWR014
U 1 1 575C550D
P 7700 5100
F 0 "#PWR014" H 7700 4850 60  0001 C CNN
F 1 "GND" H 7700 4950 60  0000 C CNN
F 2 "" H 7700 5100 60  0000 C CNN
F 3 "" H 7700 5100 60  0000 C CNN
	1    7700 5100
	1    0    0    -1  
$EndComp
Wire Wire Line
	7800 5000 7700 5000
Text GLabel 5600 3000 2    47   Input ~ 0
STATUS_OUT
Text GLabel 3200 3000 1    47   Input ~ 0
THERMO_EN
Text GLabel 2000 3000 1    47   Input ~ 0
PHOTO_EN
$Comp
L CONN_01X02 P2
U 1 1 575C5534
P 8900 4950
F 0 "P2" H 8900 5100 50  0000 C CNN
F 1 "GROUND" V 9000 4950 50  0000 C CNN
F 2 "Local:2PIN_13" H 8900 4950 60  0001 C CNN
F 3 "" H 8900 4950 60  0000 C CNN
	1    8900 4950
	1    0    0    -1  
$EndComp
Text GLabel 8600 4900 0    47   Input ~ 0
GROUND
$Comp
L GND #PWR015
U 1 1 575C553C
P 8600 5100
F 0 "#PWR015" H 8600 4850 60  0001 C CNN
F 1 "GND" H 8600 4950 60  0000 C CNN
F 2 "" H 8600 5100 60  0000 C CNN
F 3 "" H 8600 5100 60  0000 C CNN
	1    8600 5100
	1    0    0    -1  
$EndComp
Wire Wire Line
	8700 4900 8600 4900
Wire Wire Line
	8700 5000 8600 5000
Wire Wire Line
	8600 5000 8600 5100
Text Notes 6300 3200 0    60   ~ 0
EQ[X[C]]: X[C] = 1 / (2 * %pi * f * C);\nPR[O]: [f=4.8e6, V[I]=3.2];\nEQ[X[C]], PR[O], C=2.3e-12, numer;\nEQ[X[C]], PR[O], C=5.8e-12, numer;\nEQ[X[C]], C=1e-9, f=4.8e6, numer;\nEQ[V[D]]: V[D] = V[I] * R[1] / (R[1] + R[2]) - 0.9;\nEQ[V[D]], PR[O], R[1]=5.7e3, R[2]=10e3+33;\nEQ[V[D]], PR[O], R[1]=14.4e3, R[2]=10e3+33;
Text Notes 7950 6050 0    60   ~ 0
Sensor:\ntwo stright wires d=1.2mm l=60mm\n\nCapacity:\n2.3p - dry\n5.8p - wet
$Comp
L C C10
U 1 1 575C7070
P 4000 5650
F 0 "C10" H 4025 5750 50  0000 L CNN
F 1 "100n" H 4025 5550 50  0000 L CNN
F 2 "Local:C_0603" H 4038 5500 30  0001 C CNN
F 3 "" H 4000 5650 60  0000 C CNN
	1    4000 5650
	1    0    0    -1  
$EndComp
Wire Wire Line
	4000 5400 4000 5500
Connection ~ 4000 5400
$Comp
L CP C11
U 1 1 575C8367
P 4300 5650
F 0 "C11" H 4325 5750 50  0000 L CNN
F 1 "4u7" H 4325 5550 50  0000 L CNN
F 2 "Local:C_0805" H 4338 5500 50  0001 C CNN
F 3 "" H 4300 5650 50  0000 C CNN
	1    4300 5650
	1    0    0    -1  
$EndComp
$Comp
L C C7
U 1 1 575C84BB
P 2300 5650
F 0 "C7" H 2325 5750 50  0000 L CNN
F 1 "10n" H 2325 5550 50  0000 L CNN
F 2 "Local:C_0603" H 2338 5500 30  0001 C CNN
F 3 "" H 2300 5650 60  0000 C CNN
	1    2300 5650
	1    0    0    -1  
$EndComp
$Comp
L INDUCTOR_SMALL L1
U 1 1 575C853C
P 2950 5400
F 0 "L1" H 2950 5500 50  0000 C CNN
F 1 "470R" H 2950 5350 50  0000 C CNN
F 2 "Local:C_0805" H 2950 5400 60  0001 C CNN
F 3 "" H 2950 5400 60  0000 C CNN
	1    2950 5400
	1    0    0    -1  
$EndComp
Wire Wire Line
	2300 5400 2700 5400
Wire Wire Line
	2600 5300 2600 5500
Wire Wire Line
	4000 5800 4000 5900
Connection ~ 4000 5900
Wire Wire Line
	3700 5800 3700 5900
Wire Wire Line
	2600 5800 2600 6000
Connection ~ 2600 5400
$Comp
L CP C8
U 1 1 575C8A5F
P 2600 5650
F 0 "C8" H 2625 5750 50  0000 L CNN
F 1 "4u7" H 2625 5550 50  0000 L CNN
F 2 "Local:C_0805" H 2638 5500 50  0001 C CNN
F 3 "" H 2600 5650 50  0000 C CNN
	1    2600 5650
	1    0    0    -1  
$EndComp
Wire Wire Line
	2300 5400 2300 5500
Wire Wire Line
	2300 5900 2300 5800
$Comp
L GND #PWR016
U 1 1 575C9109
P 5900 6000
F 0 "#PWR016" H 5900 5750 60  0001 C CNN
F 1 "GND" H 5900 5850 60  0000 C CNN
F 2 "" H 5900 6000 60  0000 C CNN
F 3 "" H 5900 6000 60  0000 C CNN
	1    5900 6000
	1    0    0    -1  
$EndComp
$Comp
L GND #PWR017
U 1 1 575C93CF
P 2600 6000
F 0 "#PWR017" H 2600 5750 60  0001 C CNN
F 1 "GND" H 2600 5850 60  0000 C CNN
F 2 "" H 2600 6000 60  0000 C CNN
F 3 "" H 2600 6000 60  0000 C CNN
	1    2600 6000
	1    0    0    -1  
$EndComp
Connection ~ 2600 5900
Wire Wire Line
	3300 5300 3300 5400
Wire Wire Line
	3300 5400 3200 5400
$Comp
L +3V3 #PWR018
U 1 1 575C9678
P 3300 5300
F 0 "#PWR018" H 3300 5150 50  0001 C CNN
F 1 "+3V3" H 3300 5440 50  0000 C CNN
F 2 "" H 3300 5300 50  0000 C CNN
F 3 "" H 3300 5300 50  0000 C CNN
	1    3300 5300
	1    0    0    -1  
$EndComp
$Comp
L +3V3 #PWR019
U 1 1 575C9711
P 4300 5300
F 0 "#PWR019" H 4300 5150 50  0001 C CNN
F 1 "+3V3" H 4300 5440 50  0000 C CNN
F 2 "" H 4300 5300 50  0000 C CNN
F 3 "" H 4300 5300 50  0000 C CNN
	1    4300 5300
	1    0    0    -1  
$EndComp
$Comp
L C C6
U 1 1 575C9B83
P 1800 5650
F 0 "C6" H 1825 5750 50  0000 L CNN
F 1 "100n" H 1825 5550 50  0000 L CNN
F 2 "Local:C_0603" H 1838 5500 30  0001 C CNN
F 3 "" H 1800 5650 60  0000 C CNN
	1    1800 5650
	1    0    0    -1  
$EndComp
$Comp
L GND #PWR020
U 1 1 575C9F91
P 1800 6000
F 0 "#PWR020" H 1800 5750 60  0001 C CNN
F 1 "GND" H 1800 5850 60  0000 C CNN
F 2 "" H 1800 6000 60  0000 C CNN
F 3 "" H 1800 6000 60  0000 C CNN
	1    1800 6000
	1    0    0    -1  
$EndComp
Wire Wire Line
	1800 5800 1800 6000
Wire Wire Line
	1800 5500 1800 5300
Text GLabel 1800 5300 1    47   Input ~ 0
~RESET
$Comp
L MAX485 D1
U 1 1 575CB06B
P 3400 1450
F 0 "D1" H 3400 1750 60  0000 C CNN
F 1 "MAX485" H 3400 1150 60  0000 C CNN
F 2 "Local:SOIC-8_3.9x4.9mm_Pitch1.27mm" H 3240 1450 60  0001 C CNN
F 3 "" H 3240 1450 60  0000 C CNN
	1    3400 1450
	1    0    0    -1  
$EndComp
$Comp
L GND #PWR021
U 1 1 575CB77A
P 3900 1700
F 0 "#PWR021" H 3900 1450 60  0001 C CNN
F 1 "GND" H 3900 1550 60  0000 C CNN
F 2 "" H 3900 1700 60  0000 C CNN
F 3 "" H 3900 1700 60  0000 C CNN
	1    3900 1700
	1    0    0    -1  
$EndComp
Wire Wire Line
	3800 1600 3900 1600
Wire Wire Line
	3900 1600 3900 1700
Wire Wire Line
	3800 1300 3900 1300
Wire Wire Line
	3900 1300 3900 1200
Text GLabel 3900 1400 2    47   Input ~ 0
RS485_B
Text GLabel 3900 1500 2    47   Input ~ 0
RS485_A
Wire Wire Line
	3900 1400 3800 1400
Wire Wire Line
	3900 1500 3800 1500
Text GLabel 2900 1300 0    47   Input ~ 0
RS485_RO
Wire Wire Line
	3000 1300 2900 1300
Text GLabel 2800 1500 0    47   Input ~ 0
RS485_DE
Text GLabel 2900 1600 0    47   Input ~ 0
RS485_DI
Wire Wire Line
	3000 1400 2900 1400
Wire Wire Line
	2800 1500 3000 1500
Wire Wire Line
	3000 1600 2900 1600
Text GLabel 5500 1300 0    47   Input ~ 0
RS485_RO
Text GLabel 5500 1100 0    47   Input ~ 0
RS485_DE
Text GLabel 5500 1200 0    47   Input ~ 0
RS485_DI
Wire Wire Line
	5600 1200 5500 1200
Wire Wire Line
	5600 1300 5500 1300
Wire Wire Line
	5600 1100 5500 1100
Wire Wire Line
	5600 1400 5500 1400
Wire Wire Line
	5600 1500 5500 1500
Wire Wire Line
	5600 1600 5500 1600
Wire Wire Line
	5600 1700 5500 1700
Wire Wire Line
	2900 1400 2900 1500
Connection ~ 2900 1500
Wire Wire Line
	5600 1000 5500 1000
Wire Wire Line
	5600 1900 5500 1900
Wire Wire Line
	5600 2000 5500 2000
$Comp
L R R2
U 1 1 575D41E0
P 9200 3250
F 0 "R2" V 9280 3250 50  0000 C CNN
F 1 "R" V 9200 3250 50  0000 C CNN
F 2 "Local:R_0603" V 9130 3250 50  0001 C CNN
F 3 "" H 9200 3250 50  0000 C CNN
	1    9200 3250
	-1   0    0    1   
$EndComp
Text GLabel 5500 1400 0    47   Input ~ 0
HUMIDITY_MOD
Text GLabel 9300 3000 2    47   Input ~ 0
SQ_WAVE
Wire Wire Line
	9300 3000 9200 3000
$Comp
L C C1
U 1 1 575D4772
P 9200 3650
F 0 "C1" H 9225 3750 50  0000 L CNN
F 1 "10n" H 9225 3550 50  0000 L CNN
F 2 "Local:C_0603" H 9238 3500 30  0001 C CNN
F 3 "" H 9200 3650 60  0000 C CNN
	1    9200 3650
	1    0    0    -1  
$EndComp
Wire Wire Line
	9200 3400 9200 3500
Wire Wire Line
	9200 3800 9200 3900
Text GLabel 5500 1700 0    47   Input ~ 0
HUMIDITY_IN
Text GLabel 5500 1000 0    47   Input ~ 0
PHOTO_IN
Text GLabel 5500 1600 0    47   Input ~ 0
THERMO_IN
$Comp
L R R5
U 1 1 575D5ECB
P 8950 3900
F 0 "R5" V 9030 3900 50  0000 C CNN
F 1 "R" V 8950 3900 50  0000 C CNN
F 2 "Local:R_0603" V 8880 3900 50  0001 C CNN
F 3 "" H 8950 3900 50  0000 C CNN
	1    8950 3900
	0    -1   -1   0   
$EndComp
Wire Wire Line
	9100 3900 9300 3900
Connection ~ 9200 3900
Wire Wire Line
	9200 3000 9200 3100
Wire Wire Line
	10000 1000 10100 1000
Wire Wire Line
	10000 1200 10100 1200
Wire Wire Line
	10000 1300 10100 1300
NoConn ~ 10100 1300
NoConn ~ 10100 1200
Text GLabel 5500 1900 0    47   Input ~ 0
SQ_WAVE
Text GLabel 10100 1000 2    47   Input ~ 0
THERMO_EN
Text GLabel 5500 2000 0    47   Input ~ 0
PHOTO_EN
Text GLabel 5800 5700 0    47   Input ~ 0
RS485_B
Text GLabel 5800 5500 0    47   Input ~ 0
RS485_A
$Comp
L D_Schottky_x2_Serial_AKC D3
U 1 1 5763D1BA
P 8000 4000
F 0 "D3" H 8050 3900 50  0000 C CNN
F 1 "BAV99LT1" H 8000 4100 50  0000 C CNN
F 2 "Local:SOT-23" H 8000 4000 50  0001 C CNN
F 3 "" H 8000 4000 50  0000 C CNN
	1    8000 4000
	0    1    -1   0   
$EndComp
Wire Wire Line
	8000 3700 8000 3600
Wire Wire Line
	8000 3600 8400 3600
Text GLabel 5500 1500 0    47   Input ~ 0
STATUS_OUT
$Comp
L +3V3 #PWR022
U 1 1 575CBB97
P 3900 1200
F 0 "#PWR022" H 3900 1050 50  0001 C CNN
F 1 "+3V3" H 3900 1340 50  0000 C CNN
F 2 "" H 3900 1200 50  0000 C CNN
F 3 "" H 3900 1200 50  0000 C CNN
	1    3900 1200
	1    0    0    -1  
$EndComp
Wire Wire Line
	5600 3000 5500 3000
$Comp
L GND #PWR023
U 1 1 57683303
P 5500 4000
F 0 "#PWR023" H 5500 3750 60  0001 C CNN
F 1 "GND" H 5500 3850 60  0000 C CNN
F 2 "" H 5500 4000 60  0000 C CNN
F 3 "" H 5500 4000 60  0000 C CNN
	1    5500 4000
	1    0    0    -1  
$EndComp
$EndSCHEMATC
