(module EC11E (layer F.Cu) (tedit 54E10C15)
  (fp_text reference REF** (at 0 -5) (layer F.SilkS)
    (effects (font (size 1.5 1.5) (thickness 0.15)))
  )
  (fp_text value EC11E (at 0 5) (layer F.SilkS)
    (effects (font (size 1.5 1.5) (thickness 0.15)))
  )
  (fp_line (start 1.5 -2.5) (end 1.5 2.5) (layer F.SilkS) (width 0.15))
  (fp_arc (start 0 0) (end 1.5 2) (angle 252) (layer F.SilkS) (width 0.15))
  (fp_circle (center 0 0) (end 3.5 0.5) (layer F.SilkS) (width 0.15))
  (fp_circle (center 0 0) (end 3 0) (layer F.SilkS) (width 0.15))
  (fp_line (start 2.5 7.5) (end 2.5 6) (layer F.SilkS) (width 0.15))
  (fp_line (start 0 7.5) (end 0 6) (layer F.SilkS) (width 0.15))
  (fp_line (start -2.5 7.5) (end -2.5 6) (layer F.SilkS) (width 0.15))
  (fp_line (start 2.5 -6) (end 2.5 -7) (layer F.SilkS) (width 0.15))
  (fp_line (start -2.5 -6) (end -2.5 -7) (layer F.SilkS) (width 0.15))
  (fp_line (start -6 -6) (end 6 -6) (layer F.SilkS) (width 0.15))
  (fp_line (start 6 -6) (end 6 6) (layer F.SilkS) (width 0.15))
  (fp_line (start 6 6) (end -6 6) (layer F.SilkS) (width 0.15))
  (fp_line (start -6 6) (end -6 -6) (layer F.SilkS) (width 0.15))
  (pad 1 thru_hole circle (at -2.5 7.5) (size 2 2) (drill 0.762) (layers *.Cu *.Mask F.SilkS))
  (pad 2 thru_hole circle (at 0 7.5) (size 2 2) (drill 0.762) (layers *.Cu *.Mask F.SilkS))
  (pad 3 thru_hole circle (at 2.5 7.5) (size 2 2) (drill 0.762) (layers *.Cu *.Mask F.SilkS))
  (pad 4 thru_hole circle (at 2.5 -7) (size 2 2) (drill 0.762) (layers *.Cu *.Mask F.SilkS))
  (pad 5 thru_hole circle (at -2.5 -7) (size 2 2) (drill 0.762) (layers *.Cu *.Mask F.SilkS))
  (pad "" thru_hole oval (at -5.5 0) (size 3.5 4.6) (drill oval 1.5 2.6) (layers *.Cu *.Mask F.SilkS))
  (pad "" thru_hole oval (at 5.5 0) (size 3.5 4.6) (drill oval 1.5 2.6) (layers *.Cu *.Mask F.SilkS))
)
