(module IP56_HOUSING (layer F.Cu) (tedit 575668D3)
  (fp_text reference REF** (at 0 0.5) (layer F.SilkS)
    (effects (font (size 1 1) (thickness 0.15)))
  )
  (fp_text value IP56_HOUSING (at 0 -0.5) (layer F.Fab)
    (effects (font (size 1 1) (thickness 0.15)))
  )
  (fp_arc (start 41 0) (end 42 0) (angle 90) (layer F.SilkS) (width 0.15))
  (fp_arc (start 41 0) (end 41 -1) (angle 90) (layer F.SilkS) (width 0.15))
  (fp_arc (start 10 0) (end 10 1) (angle 90) (layer F.SilkS) (width 0.15))
  (fp_arc (start 10 0) (end 9 0) (angle 90) (layer F.SilkS) (width 0.15))
  (fp_arc (start 0 29) (end 0 30) (angle 90) (layer F.SilkS) (width 0.15))
  (fp_arc (start 0 29) (end 1 29) (angle 90) (layer F.SilkS) (width 0.15))
  (fp_arc (start 0 6) (end -1 6) (angle 90) (layer F.SilkS) (width 0.15))
  (fp_arc (start 0 6) (end 0 5) (angle 90) (layer F.SilkS) (width 0.15))
  (fp_arc (start -41 0) (end -41 1) (angle 90) (layer F.SilkS) (width 0.15))
  (fp_arc (start -41 0) (end -42 0) (angle 90) (layer F.SilkS) (width 0.15))
  (fp_arc (start -10 0) (end -9 0) (angle 90) (layer F.SilkS) (width 0.15))
  (fp_arc (start -10 0) (end -10 -1) (angle 90) (layer F.SilkS) (width 0.15))
  (fp_arc (start 0 -6) (end 1 -6) (angle 90) (layer F.SilkS) (width 0.15))
  (fp_arc (start 0 -6) (end 0 -5) (angle 90) (layer F.SilkS) (width 0.15))
  (fp_arc (start 0 -29) (end -1 -29) (angle 90) (layer F.SilkS) (width 0.15))
  (fp_arc (start 0 -29) (end 0 -30) (angle 90) (layer F.SilkS) (width 0.15))
  (fp_arc (start 41 0) (end 44 0) (angle 90) (layer F.SilkS) (width 0.15))
  (fp_arc (start 41 0) (end 41 -3) (angle 90) (layer F.SilkS) (width 0.15))
  (fp_arc (start 10 0) (end 10 3) (angle 90) (layer F.SilkS) (width 0.15))
  (fp_arc (start 10 0) (end 7 0) (angle 90) (layer F.SilkS) (width 0.15))
  (fp_arc (start 0 -6) (end 3 -6) (angle 90) (layer F.SilkS) (width 0.15))
  (fp_arc (start 0 -6) (end 0 -3) (angle 90) (layer F.SilkS) (width 0.15))
  (fp_arc (start 0 -29) (end -3 -29) (angle 90) (layer F.SilkS) (width 0.15))
  (fp_arc (start 0 -29) (end 0 -32) (angle 90) (layer F.SilkS) (width 0.15))
  (fp_arc (start 0 29) (end 3 29) (angle 90) (layer F.SilkS) (width 0.15))
  (fp_arc (start 0 29) (end 0 32) (angle 90) (layer F.SilkS) (width 0.15))
  (fp_arc (start 0 6) (end 0 3) (angle 90) (layer F.SilkS) (width 0.15))
  (fp_arc (start 0 6) (end -3 6) (angle 90) (layer F.SilkS) (width 0.15))
  (fp_arc (start -10 0) (end -7 0) (angle 90) (layer F.SilkS) (width 0.15))
  (fp_arc (start -10 0) (end -10 -3) (angle 90) (layer F.SilkS) (width 0.15))
  (fp_arc (start -41 0) (end -41 3) (angle 90) (layer F.SilkS) (width 0.15))
  (fp_arc (start -41 0) (end -44 0) (angle 90) (layer F.SilkS) (width 0.15))
  (fp_line (start 41 3) (end 10 3) (layer F.SilkS) (width 0.15))
  (fp_line (start 10 -3) (end 41 -3) (layer F.SilkS) (width 0.15))
  (fp_line (start 3 -29) (end 3 -6) (layer F.SilkS) (width 0.15))
  (fp_line (start -3 -6) (end -3 -29) (layer F.SilkS) (width 0.15))
  (fp_line (start 3 29) (end 3 6) (layer F.SilkS) (width 0.15))
  (fp_line (start -3 6) (end -3 29) (layer F.SilkS) (width 0.15))
  (fp_line (start -10 3) (end -41 3) (layer F.SilkS) (width 0.15))
  (fp_line (start -41 -3) (end -10 -3) (layer F.SilkS) (width 0.15))
  (fp_line (start 1 6) (end 1 29) (layer F.SilkS) (width 0.15))
  (fp_line (start -1 6) (end -1 29) (layer F.SilkS) (width 0.15))
  (fp_line (start 10 1) (end 41 1) (layer F.SilkS) (width 0.15))
  (fp_line (start 10 -1) (end 41 -1) (layer F.SilkS) (width 0.15))
  (fp_line (start -10 1) (end -41 1) (layer F.SilkS) (width 0.15))
  (fp_line (start -41 -1) (end -10 -1) (layer F.SilkS) (width 0.15))
  (fp_line (start 1 -6) (end 1 -29) (layer F.SilkS) (width 0.15))
  (fp_line (start -1 -29) (end -1 -6) (layer F.SilkS) (width 0.15))
  (fp_line (start -61 27) (end -47 27) (layer F.SilkS) (width 0.15))
  (fp_line (start -47 27) (end -47 41) (layer F.SilkS) (width 0.15))
  (fp_line (start 61 27) (end 47 27) (layer F.SilkS) (width 0.15))
  (fp_line (start 47 27) (end 47 41) (layer F.SilkS) (width 0.15))
  (fp_line (start 47 -41) (end 47 -27) (layer F.SilkS) (width 0.15))
  (fp_line (start 47 -27) (end 61 -27) (layer F.SilkS) (width 0.15))
  (fp_line (start -61 -27) (end -47 -27) (layer F.SilkS) (width 0.15))
  (fp_line (start -47 -27) (end -47 -41) (layer F.SilkS) (width 0.15))
  (fp_line (start 61 -27) (end 61 27) (layer F.SilkS) (width 0.15))
  (fp_line (start -61 -27) (end -61 27) (layer F.SilkS) (width 0.15))
  (fp_line (start -47 41) (end 47 41) (layer F.SilkS) (width 0.15))
  (fp_line (start -47 -41) (end 47 -41) (layer F.SilkS) (width 0.15))
)
