EESchema Schematic File Version 2
LIBS:kicad-spice
LIBS:project-cache
EELAYER 25 0
EELAYER END
$Descr A4 11693 8268
encoding utf-8
Sheet 1 1
Title ""
Date ""
Rev ""
Comp ""
Comment1 ""
Comment2 ""
Comment3 ""
Comment4 ""
$EndDescr
$Comp
L V V4
U 1 1 54ECA53D
P 6000 3700
F 0 "V4" V 5800 3700 60  0000 C CNN
F 1 "DC 3.3V" V 6250 3700 60  0000 C CNN
F 2 "" H 6000 3700 60  0000 C CNN
F 3 "" H 6000 3700 60  0000 C CNN
	1    6000 3700
	1    0    0    -1  
$EndComp
$Comp
L 0 #GND01
U 1 1 550C7393
P 6000 4100
F 0 "#GND01" H 6000 4000 40  0001 C CNN
F 1 "0" H 6000 4030 40  0000 C CNN
F 2 "" H 6000 4100 60  0000 C CNN
F 3 "" H 6000 4100 60  0000 C CNN
	1    6000 4100
	1    0    0    -1  
$EndComp
Text Notes 5750 6100 0    60   ~ 0
+pspice\n* \n.control\n  option nopage\n  tran 0.1uS 100uS 0uS\n  set gnuplot_terminal=png\n  gnuplot project\n*  + v(in)\n  + v(pin)\n  + v(adc)\n  + v(in,pin)/20\n  + v(half_lsb)\n  + v(sw1)\n  + v(sw2)\n.endc
$Comp
L V V1
U 1 1 572C2687
P 1800 3700
F 0 "V1" H 1700 3900 60  0000 C CNN
F 1 "DC 0V" H 1950 3500 47  0000 C CNN
F 2 "" H 1800 3700 60  0000 C CNN
F 3 "" H 1800 3700 60  0000 C CNN
	1    1800 3700
	1    0    0    -1  
$EndComp
Wire Wire Line
	6000 3900 6000 4100
Wire Wire Line
	6000 3000 6000 3500
Wire Wire Line
	1800 3000 1800 3500
Wire Wire Line
	1800 3000 2000 3000
$Comp
L 0 #GND02
U 1 1 572C3390
P 1800 4100
F 0 "#GND02" H 1800 4000 40  0001 C CNN
F 1 "0" H 1800 4030 40  0000 C CNN
F 2 "" H 1800 4100 60  0000 C CNN
F 3 "" H 1800 4100 60  0000 C CNN
	1    1800 4100
	1    0    0    -1  
$EndComp
Wire Wire Line
	1800 3900 1800 4100
$Comp
L V V2
U 1 1 573265AF
P 3900 3700
F 0 "V2" V 3700 3700 60  0000 C CNN
F 1 "PULSE 0V 1V 8uS 0uS 0uS 2uS 10uS" H 3800 3050 47  0000 C CNN
F 2 "" H 3900 3700 60  0000 C CNN
F 3 "" H 3900 3700 60  0000 C CNN
	1    3900 3700
	1    0    0    -1  
$EndComp
$Comp
L R R1
U 1 1 5732668A
P 2200 3000
F 0 "R1" H 2200 3100 60  0000 C CNN
F 1 "100K" H 2200 2900 60  0000 C CNN
F 2 "" H 2200 3000 60  0000 C CNN
F 3 "" H 2200 3000 60  0000 C CNN
	1    2200 3000
	1    0    0    -1  
$EndComp
$Comp
L C C1
U 1 1 573266FA
P 2600 3700
F 0 "C1" V 2700 3600 60  0000 C CNN
F 1 "100n" V 2500 3600 60  0000 C CNN
F 2 "" H 1950 4250 60  0000 C CNN
F 3 "" H 1950 4250 60  0000 C CNN
	1    2600 3700
	0    -1   -1   0   
$EndComp
Wire Wire Line
	2400 3000 3600 3000
Wire Wire Line
	2600 3000 2600 3600
Wire Wire Line
	2600 3800 2600 4100
$Comp
L 0 #GND03
U 1 1 57326763
P 2600 4100
F 0 "#GND03" H 2600 4000 40  0001 C CNN
F 1 "0" H 2600 4030 40  0000 C CNN
F 2 "" H 2600 4100 60  0000 C CNN
F 3 "" H 2600 4100 60  0000 C CNN
	1    2600 4100
	1    0    0    -1  
$EndComp
Text GLabel 1800 3000 1    60   Input ~ 0
IN
$Comp
L C C2
U 1 1 57326901
P 4600 3700
F 0 "C2" V 4700 3600 60  0000 C CNN
F 1 "8p" V 4500 3600 60  0000 C CNN
F 2 "" H 3950 4250 60  0000 C CNN
F 3 "" H 3950 4250 60  0000 C CNN
	1    4600 3700
	0    -1   -1   0   
$EndComp
$Comp
L ASWITCH A1
U 1 1 57326B1A
P 3900 3000
F 0 "A1" H 3850 3150 60  0000 C CNN
F 1 "SW" H 4100 2900 60  0000 C CNN
F 2 "" H 3900 2650 60  0000 C CNN
F 3 "" H 3900 2650 60  0000 C CNN
	1    3900 3000
	1    0    0    -1  
$EndComp
Connection ~ 2600 3000
Wire Wire Line
	3900 3300 3900 3500
$Comp
L 0 #GND04
U 1 1 57326CD6
P 3900 4100
F 0 "#GND04" H 3900 4000 40  0001 C CNN
F 1 "0" H 3900 4030 40  0000 C CNN
F 2 "" H 3900 4100 60  0000 C CNN
F 3 "" H 3900 4100 60  0000 C CNN
	1    3900 4100
	1    0    0    -1  
$EndComp
Wire Wire Line
	3900 4100 3900 3900
Wire Wire Line
	4200 3000 5000 3000
Wire Wire Line
	4600 3000 4600 3600
Wire Wire Line
	4600 3800 4600 4100
$Comp
L 0 #GND05
U 1 1 57326E18
P 4600 4100
F 0 "#GND05" H 4600 4000 40  0001 C CNN
F 1 "0" H 4600 4030 40  0000 C CNN
F 2 "" H 4600 4100 60  0000 C CNN
F 3 "" H 4600 4100 60  0000 C CNN
	1    4600 4100
	1    0    0    -1  
$EndComp
Text Notes 2400 5550 0    60   ~ 0
-pspice\n* \n.model sw aswitch\n+ cntl_off=0.0\n+ cntl_on=1.0\n+ r_off=1e12\n+ r_on=1k\n+ log=TRUE
$Comp
L ASWITCH A2
U 1 1 57327001
P 5300 3000
F 0 "A2" H 5250 3150 60  0000 C CNN
F 1 "SW" H 5500 2900 60  0000 C CNN
F 2 "" H 5300 2650 60  0000 C CNN
F 3 "" H 5300 2650 60  0000 C CNN
	1    5300 3000
	1    0    0    -1  
$EndComp
Connection ~ 4600 3000
Wire Wire Line
	5300 3300 5300 3500
$Comp
L V V3
U 1 1 573270FE
P 5300 3700
F 0 "V3" V 5100 3700 60  0000 C CNN
F 1 "PULSE 0V 1V 2uS 0uS 0uS 4uS 10uS" H 5400 3050 47  0000 C CNN
F 2 "" H 5300 3700 60  0000 C CNN
F 3 "" H 5300 3700 60  0000 C CNN
	1    5300 3700
	1    0    0    -1  
$EndComp
$Comp
L 0 #GND06
U 1 1 57327217
P 5300 4100
F 0 "#GND06" H 5300 4000 40  0001 C CNN
F 1 "0" H 5300 4030 40  0000 C CNN
F 2 "" H 5300 4100 60  0000 C CNN
F 3 "" H 5300 4100 60  0000 C CNN
	1    5300 4100
	1    0    0    -1  
$EndComp
Wire Wire Line
	5300 4100 5300 3900
Wire Wire Line
	6000 3000 5600 3000
Text GLabel 6000 3000 1    60   Input ~ 0
REF
Text GLabel 4600 3000 1    60   Input ~ 0
ADC
Text GLabel 2600 3000 1    60   Input ~ 0
PIN
$Comp
L V V5
U 1 1 57327A7B
P 7100 3700
F 0 "V5" V 6900 3700 60  0000 C CNN
F 1 "DC 400uV" H 7100 3050 60  0000 C CNN
F 2 "" H 7100 3700 60  0000 C CNN
F 3 "" H 7100 3700 60  0000 C CNN
	1    7100 3700
	1    0    0    -1  
$EndComp
$Comp
L 0 #GND07
U 1 1 57327A81
P 7100 4100
F 0 "#GND07" H 7100 4000 40  0001 C CNN
F 1 "0" H 7100 4030 40  0000 C CNN
F 2 "" H 7100 4100 60  0000 C CNN
F 3 "" H 7100 4100 60  0000 C CNN
	1    7100 4100
	1    0    0    -1  
$EndComp
Wire Wire Line
	7100 3900 7100 4100
Wire Wire Line
	7100 3500 7100 3000
Text GLabel 7100 3000 1    60   Input ~ 0
HALF_LSB
Text GLabel 3900 3400 0    60   Input ~ 0
SW1
Text GLabel 5300 3400 0    60   Input ~ 0
SW2
$Comp
L R R2
U 1 1 57327DE7
P 7400 3000
F 0 "R2" H 7400 3100 60  0000 C CNN
F 1 "10K" H 7400 2900 60  0000 C CNN
F 2 "" H 7400 3000 60  0000 C CNN
F 3 "" H 7400 3000 60  0000 C CNN
	1    7400 3000
	1    0    0    -1  
$EndComp
Wire Wire Line
	7100 3000 7200 3000
Wire Wire Line
	7600 3000 7700 3000
Wire Wire Line
	7700 3000 7700 4100
$Comp
L 0 #GND08
U 1 1 57327EF5
P 7700 4100
F 0 "#GND08" H 7700 4000 40  0001 C CNN
F 1 "0" H 7700 4030 40  0000 C CNN
F 2 "" H 7700 4100 60  0000 C CNN
F 3 "" H 7700 4100 60  0000 C CNN
	1    7700 4100
	1    0    0    -1  
$EndComp
Text Notes 2050 2100 0    60   ~ 0
-pspice\n* \n.subckt FB470R 1 2\nR1 1 7 0.73\nC2 7 8 4p\nR2 8 2 950\nC1 7 9 0.4p\nR5 9 2 10\nL0 7 3 0.1875u\nL1 3 2 0.5625u\nL3 3 5 0.1875u\nR3 5 2 950\n.ends
$EndSCHEMATC
