EESchema Schematic File Version 2
LIBS:power
LIBS:device
LIBS:transistors
LIBS:conn
LIBS:linear
LIBS:regul
LIBS:74xx
LIBS:cmos4000
LIBS:adc-dac
LIBS:memory
LIBS:xilinx
LIBS:microcontrollers
LIBS:dsp
LIBS:microchip
LIBS:analog_switches
LIBS:motorola
LIBS:texas
LIBS:intel
LIBS:audio
LIBS:interface
LIBS:digital-audio
LIBS:philips
LIBS:display
LIBS:cypress
LIBS:siliconi
LIBS:opto
LIBS:atmel
LIBS:contrib
LIBS:valves
LIBS:project-cache
EELAYER 25 0
EELAYER END
$Descr A4 11693 8268
encoding utf-8
Sheet 1 1
Title ""
Date ""
Rev ""
Comp ""
Comment1 ""
Comment2 ""
Comment3 ""
Comment4 ""
$EndDescr
$Comp
L LED D1
U 1 1 55BF5046
P 5700 3700
F 0 "D1" H 5700 3800 50  0000 C CNN
F 1 "LED" H 5700 3600 50  0000 C CNN
F 2 "Local:LED_0603" H 5700 3700 60  0001 C CNN
F 3 "" H 5700 3700 60  0000 C CNN
	1    5700 3700
	0    -1   -1   0   
$EndComp
$Comp
L R R3
U 1 1 55BF51E0
P 5700 3250
F 0 "R3" V 5780 3250 50  0000 C CNN
F 1 "1K" V 5707 3251 50  0000 C CNN
F 2 "Local:R_0603" V 5630 3250 30  0001 C CNN
F 3 "" H 5700 3250 30  0000 C CNN
	1    5700 3250
	-1   0    0    1   
$EndComp
Wire Wire Line
	5700 3000 5700 3100
Wire Wire Line
	5700 3400 5700 3500
Wire Wire Line
	5700 3900 5700 4000
$Comp
L RJ12 J1
U 1 1 56EBD6E0
P 6650 5600
F 0 "J1" H 6850 6100 60  0000 C CNN
F 1 "RJ12" H 6500 6100 60  0000 C CNN
F 2 "Local:RJ12" H 6650 5600 60  0001 C CNN
F 3 "" H 6650 5600 60  0000 C CNN
	1    6650 5600
	0    1    1    0   
$EndComp
$Comp
L Photores R4
U 1 1 56EBDD71
P 2200 3350
F 0 "R4" V 2100 3350 50  0000 C CNN
F 1 "1M" V 2300 3350 50  0000 C TNN
F 2 "Local:PHOTORES_5" V 2130 3350 30  0001 C CNN
F 3 "" H 2200 3350 30  0000 C CNN
	1    2200 3350
	1    0    0    -1  
$EndComp
$Comp
L R R5
U 1 1 56EBDE50
P 2200 3950
F 0 "R5" V 2280 3950 50  0000 C CNN
F 1 "10K" V 2207 3951 50  0000 C CNN
F 2 "Local:R_0603" V 2130 3950 30  0001 C CNN
F 3 "" H 2200 3950 30  0000 C CNN
	1    2200 3950
	-1   0    0    -1  
$EndComp
$Comp
L GND #PWR01
U 1 1 56EBE22D
P 2200 4300
F 0 "#PWR01" H 2200 4050 60  0001 C CNN
F 1 "GND" H 2200 4150 60  0000 C CNN
F 2 "" H 2200 4300 60  0000 C CNN
F 3 "" H 2200 4300 60  0000 C CNN
	1    2200 4300
	1    0    0    -1  
$EndComp
Wire Wire Line
	2200 3600 2200 3800
Wire Wire Line
	2200 4100 2200 4300
Wire Wire Line
	2200 3000 2200 3100
$Comp
L C C1
U 1 1 56EBE342
P 1900 3950
F 0 "C1" H 1925 4050 50  0000 L CNN
F 1 "100n" H 1925 3850 50  0000 L CNN
F 2 "Local:C_0603" H 1938 3800 30  0001 C CNN
F 3 "" H 1900 3950 60  0000 C CNN
	1    1900 3950
	1    0    0    -1  
$EndComp
Wire Wire Line
	1900 3700 2300 3700
Wire Wire Line
	1900 3700 1900 3800
Connection ~ 2200 3700
Wire Wire Line
	2200 4200 1900 4200
Wire Wire Line
	1900 4200 1900 4100
Connection ~ 2200 4200
Text GLabel 2300 3700 2    47   Input ~ 0
LIGHT
Text GLabel 9000 3900 2    47   Input ~ 0
HUMIDITY
$Comp
L ATTINY13A-SS IC1
U 1 1 572F002F
P 5500 1650
F 0 "IC1" H 4700 2050 40  0000 C CNN
F 1 "ATTINY13A-SS" H 6150 1250 40  0000 C CNN
F 2 "Local:SOIC-8_3.9x4.9mm_Pitch1.27mm" H 6100 1650 35  0001 C CIN
F 3 "" H 4700 2000 60  0000 C CNN
	1    5500 1650
	1    0    0    -1  
$EndComp
Wire Wire Line
	4500 1400 4400 1400
Wire Wire Line
	4500 1500 4400 1500
Wire Wire Line
	4500 1900 4400 1900
Wire Wire Line
	4500 1800 4400 1800
Wire Wire Line
	4500 1600 4400 1600
Text GLabel 4400 1600 0    47   Input ~ 0
HUMIDITY
Text GLabel 4400 1900 0    47   Input ~ 0
LIGHT
$Comp
L VDD #PWR02
U 1 1 572F05DF
P 6100 5300
F 0 "#PWR02" H 6100 5150 50  0001 C CNN
F 1 "VDD" H 6100 5450 50  0000 C CNN
F 2 "" H 6100 5300 60  0000 C CNN
F 3 "" H 6100 5300 60  0000 C CNN
	1    6100 5300
	1    0    0    -1  
$EndComp
Wire Wire Line
	6200 5500 6100 5500
Wire Wire Line
	6100 5500 6100 5300
Wire Wire Line
	6200 5700 6100 5700
Wire Wire Line
	6100 5700 6100 6000
Wire Wire Line
	6200 5600 6000 5600
Wire Wire Line
	6200 5800 6000 5800
Text GLabel 6000 5600 0    47   Input ~ 0
DATA_CS
Text GLabel 6000 5800 0    47   Input ~ 0
DATA_TX
$Comp
L R R7
U 1 1 572F0E2B
P 3400 3950
F 0 "R7" V 3480 3950 50  0000 C CNN
F 1 "4K7" V 3407 3951 50  0000 C CNN
F 2 "Local:R_0603" V 3330 3950 30  0001 C CNN
F 3 "" H 3400 3950 30  0000 C CNN
	1    3400 3950
	-1   0    0    -1  
$EndComp
$Comp
L THERMISTOR TH1
U 1 1 572F0EB8
P 3400 3350
F 0 "TH1" V 3500 3400 50  0000 C CNN
F 1 "10K" V 3300 3350 50  0000 C BNN
F 2 "Local:THERM_RES" H 3400 3350 60  0001 C CNN
F 3 "" H 3400 3350 60  0000 C CNN
	1    3400 3350
	-1   0    0    -1  
$EndComp
Wire Wire Line
	3400 3100 3400 3000
$Comp
L VDD #PWR03
U 1 1 572F1163
P 5200 5300
F 0 "#PWR03" H 5200 5150 50  0001 C CNN
F 1 "VDD" H 5200 5450 50  0000 C CNN
F 2 "" H 5200 5300 60  0000 C CNN
F 3 "" H 5200 5300 60  0000 C CNN
	1    5200 5300
	1    0    0    -1  
$EndComp
$Comp
L VCC #PWR04
U 1 1 572F118F
P 4500 5300
F 0 "#PWR04" H 4500 5150 50  0001 C CNN
F 1 "VCC" H 4500 5450 50  0000 C CNN
F 2 "" H 4500 5300 60  0000 C CNN
F 3 "" H 4500 5300 60  0000 C CNN
	1    4500 5300
	1    0    0    -1  
$EndComp
$Comp
L INDUCTOR_SMALL L1
U 1 1 572F11BB
P 4850 5400
F 0 "L1" H 4850 5500 50  0000 C CNN
F 1 "470R" H 4850 5350 50  0000 C CNN
F 2 "Local:C_0805" H 4850 5400 60  0001 C CNN
F 3 "" H 4850 5400 60  0000 C CNN
	1    4850 5400
	1    0    0    -1  
$EndComp
$Comp
L C C4
U 1 1 572F123E
P 4500 5650
F 0 "C4" H 4525 5750 50  0000 L CNN
F 1 "100n" H 4525 5550 50  0000 L CNN
F 2 "Local:C_0603" H 4538 5500 30  0001 C CNN
F 3 "" H 4500 5650 60  0000 C CNN
	1    4500 5650
	1    0    0    -1  
$EndComp
Wire Wire Line
	4200 5400 4600 5400
Wire Wire Line
	4500 5300 4500 5500
Connection ~ 4500 5400
Wire Wire Line
	5100 5400 5200 5400
Wire Wire Line
	5200 5400 5200 5300
Wire Wire Line
	4500 5800 4500 6000
$Comp
L GND #PWR05
U 1 1 572F1359
P 4500 6000
F 0 "#PWR05" H 4500 5750 60  0001 C CNN
F 1 "GND" H 4500 5850 60  0000 C CNN
F 2 "" H 4500 6000 60  0000 C CNN
F 3 "" H 4500 6000 60  0000 C CNN
	1    4500 6000
	1    0    0    -1  
$EndComp
$Comp
L C C3
U 1 1 572F1403
P 4200 5650
F 0 "C3" H 4225 5750 50  0000 L CNN
F 1 "10u" H 4225 5550 50  0000 L CNN
F 2 "Local:C_0805" H 4238 5500 30  0001 C CNN
F 3 "" H 4200 5650 60  0000 C CNN
	1    4200 5650
	1    0    0    -1  
$EndComp
Wire Wire Line
	4200 5400 4200 5500
Wire Wire Line
	4200 5800 4200 5900
Wire Wire Line
	4200 5900 4600 5900
Connection ~ 4500 5900
Wire Wire Line
	3400 3600 3400 3800
Wire Wire Line
	3300 3700 3700 3700
Connection ~ 3400 3700
Wire Wire Line
	3400 4100 3400 4300
Wire Wire Line
	3400 4200 3700 4200
$Comp
L C C2
U 1 1 572F17AE
P 3700 3950
F 0 "C2" H 3725 4050 50  0000 L CNN
F 1 "100n" H 3725 3850 50  0000 L CNN
F 2 "Local:C_0603" H 3738 3800 30  0001 C CNN
F 3 "" H 3700 3950 60  0000 C CNN
	1    3700 3950
	1    0    0    -1  
$EndComp
Connection ~ 3400 4200
$Comp
L GND #PWR06
U 1 1 572F1895
P 3400 4300
F 0 "#PWR06" H 3400 4050 60  0001 C CNN
F 1 "GND" H 3400 4150 60  0000 C CNN
F 2 "" H 3400 4300 60  0000 C CNN
F 3 "" H 3400 4300 60  0000 C CNN
	1    3400 4300
	1    0    0    -1  
$EndComp
Wire Wire Line
	3700 3700 3700 3800
Wire Wire Line
	3700 4200 3700 4100
Text GLabel 3300 3700 0    47   Input ~ 0
TEMPERATURE
Text GLabel 4400 1800 0    47   Input ~ 0
TEMPERATURE
Text GLabel 4400 1700 0    47   Input ~ 0
DATA_TX
Text GLabel 4400 1500 0    47   Input ~ 0
DATA_CS
$Comp
L VCC #PWR07
U 1 1 572F289C
P 6600 1300
F 0 "#PWR07" H 6600 1150 50  0001 C CNN
F 1 "VCC" H 6600 1450 50  0000 C CNN
F 2 "" H 6600 1300 60  0000 C CNN
F 3 "" H 6600 1300 60  0000 C CNN
	1    6600 1300
	1    0    0    -1  
$EndComp
$Comp
L GND #PWR08
U 1 1 572F2977
P 6600 2000
F 0 "#PWR08" H 6600 1750 60  0001 C CNN
F 1 "GND" H 6600 1850 60  0000 C CNN
F 2 "" H 6600 2000 60  0000 C CNN
F 3 "" H 6600 2000 60  0000 C CNN
	1    6600 2000
	1    0    0    -1  
$EndComp
Wire Wire Line
	6500 1400 6600 1400
Wire Wire Line
	6600 1400 6600 1300
Wire Wire Line
	6500 1900 6600 1900
Wire Wire Line
	6600 1900 6600 2000
$Comp
L R R1
U 1 1 573AC846
P 7450 3900
F 0 "R1" V 7530 3900 50  0000 C CNN
F 1 "10K" V 7457 3901 50  0000 C CNN
F 2 "Local:R_0603" V 7380 3900 30  0001 C CNN
F 3 "" H 7450 3900 30  0000 C CNN
	1    7450 3900
	0    -1   -1   0   
$EndComp
$Comp
L C C5
U 1 1 573AC908
P 7850 3900
F 0 "C5" V 7700 3850 50  0000 L CNN
F 1 "10n" V 8000 3850 50  0000 L CNN
F 2 "Local:C_0603" H 7888 3750 30  0001 C CNN
F 3 "" H 7850 3900 60  0000 C CNN
	1    7850 3900
	0    1    1    0   
$EndComp
Wire Wire Line
	7700 3900 7600 3900
Wire Wire Line
	8000 3900 8200 3900
Wire Wire Line
	7300 3900 7200 3900
Text GLabel 4400 1400 0    47   Input ~ 0
MEANDER
Text GLabel 7200 3900 0    47   Input ~ 0
MEANDER
$Comp
L D D3
U 1 1 573ACEB9
P 8100 4150
F 0 "D3" H 8100 4250 50  0000 C CNN
F 1 "1N4148" H 8150 4050 50  0000 C CNN
F 2 "Local:MiniMELF_Standard" H 8100 4150 60  0001 C CNN
F 3 "" H 8100 4150 60  0000 C CNN
	1    8100 4150
	0    -1   1    0   
$EndComp
Text GLabel 8100 3800 1    47   Input ~ 0
GROUND
Wire Wire Line
	8100 3800 8100 4000
Connection ~ 8100 3900
$Comp
L D D2
U 1 1 573AD0ED
P 8350 3900
F 0 "D2" H 8350 4000 50  0000 C CNN
F 1 "1N4148" H 8350 3800 50  0000 C CNN
F 2 "Local:MiniMELF_Standard" H 8350 3900 60  0001 C CNN
F 3 "" H 8350 3900 60  0000 C CNN
	1    8350 3900
	-1   0    0    -1  
$EndComp
Wire Wire Line
	8500 3900 9000 3900
$Comp
L R R2
U 1 1 573AD26C
P 8600 4150
F 0 "R2" V 8680 4150 50  0000 C CNN
F 1 "680K" V 8607 4151 50  0000 C CNN
F 2 "Local:R_0603" V 8530 4150 30  0001 C CNN
F 3 "" H 8600 4150 30  0000 C CNN
	1    8600 4150
	-1   0    0    1   
$EndComp
Wire Wire Line
	8600 3900 8600 4000
Wire Wire Line
	8600 4300 8600 4400
Wire Wire Line
	8100 4300 8100 4400
$Comp
L GND #PWR09
U 1 1 573AD481
P 8100 4400
F 0 "#PWR09" H 8100 4150 60  0001 C CNN
F 1 "GND" H 8100 4250 60  0000 C CNN
F 2 "" H 8100 4400 60  0000 C CNN
F 3 "" H 8100 4400 60  0000 C CNN
	1    8100 4400
	1    0    0    -1  
$EndComp
$Comp
L GND #PWR010
U 1 1 573AD4D1
P 8600 4400
F 0 "#PWR010" H 8600 4150 60  0001 C CNN
F 1 "GND" H 8600 4250 60  0000 C CNN
F 2 "" H 8600 4400 60  0000 C CNN
F 3 "" H 8600 4400 60  0000 C CNN
	1    8600 4400
	1    0    0    -1  
$EndComp
$Comp
L C C6
U 1 1 573AD732
P 8900 4150
F 0 "C6" H 8925 4250 50  0000 L CNN
F 1 "10n" H 8925 4050 50  0000 L CNN
F 2 "Local:C_0603" H 8938 4000 30  0001 C CNN
F 3 "" H 8900 4150 60  0000 C CNN
	1    8900 4150
	1    0    0    -1  
$EndComp
Wire Wire Line
	8900 4300 8900 4400
$Comp
L GND #PWR011
U 1 1 573AD9B7
P 8900 4400
F 0 "#PWR011" H 8900 4150 60  0001 C CNN
F 1 "GND" H 8900 4250 60  0000 C CNN
F 2 "" H 8900 4400 60  0000 C CNN
F 3 "" H 8900 4400 60  0000 C CNN
	1    8900 4400
	1    0    0    -1  
$EndComp
Wire Wire Line
	8900 3900 8900 4000
Connection ~ 8600 3900
Connection ~ 8900 3900
Wire Wire Line
	8500 5000 8400 5000
Text GLabel 8400 5000 0    47   Input ~ 0
GROUND
$Comp
L CONN_01X02 P1
U 1 1 573AE0E2
P 8700 5050
F 0 "P1" H 8700 5200 50  0000 C CNN
F 1 "GROUND" V 8800 5050 50  0000 C CNN
F 2 "Local:2PIN_HEAD" H 8700 5050 60  0001 C CNN
F 3 "" H 8700 5050 60  0000 C CNN
	1    8700 5050
	1    0    0    -1  
$EndComp
Wire Wire Line
	8400 5100 8400 5200
$Comp
L GND #PWR012
U 1 1 573AE1F0
P 8400 5200
F 0 "#PWR012" H 8400 4950 60  0001 C CNN
F 1 "GND" H 8400 5050 60  0000 C CNN
F 2 "" H 8400 5200 60  0000 C CNN
F 3 "" H 8400 5200 60  0000 C CNN
	1    8400 5200
	1    0    0    -1  
$EndComp
Wire Wire Line
	8500 5100 8400 5100
Wire Wire Line
	4500 1700 4400 1700
Text GLabel 5800 4000 2    47   Input ~ 0
DATA_CS
Wire Wire Line
	5700 4000 5800 4000
$Comp
L VCC #PWR013
U 1 1 573AEADE
P 5700 3000
F 0 "#PWR013" H 5700 2850 50  0001 C CNN
F 1 "VCC" H 5700 3150 50  0000 C CNN
F 2 "" H 5700 3000 60  0000 C CNN
F 3 "" H 5700 3000 60  0000 C CNN
	1    5700 3000
	1    0    0    -1  
$EndComp
$Comp
L INDUCTOR_SMALL L2
U 1 1 573AFBAE
P 4850 5900
F 0 "L2" H 4850 6000 50  0000 C CNN
F 1 "470R" H 4850 5850 50  0000 C CNN
F 2 "Local:C_0805" H 4850 5900 60  0001 C CNN
F 3 "" H 4850 5900 60  0000 C CNN
	1    4850 5900
	1    0    0    -1  
$EndComp
$Comp
L GNDD #PWR014
U 1 1 573AFCA3
P 6100 6000
F 0 "#PWR014" H 6100 5750 50  0001 C CNN
F 1 "GNDD" H 6100 5850 50  0000 C CNN
F 2 "" H 6100 6000 60  0000 C CNN
F 3 "" H 6100 6000 60  0000 C CNN
	1    6100 6000
	1    0    0    -1  
$EndComp
$Comp
L GNDD #PWR015
U 1 1 573AFD4D
P 5200 6000
F 0 "#PWR015" H 5200 5750 50  0001 C CNN
F 1 "GNDD" H 5200 5850 50  0000 C CNN
F 2 "" H 5200 6000 60  0000 C CNN
F 3 "" H 5200 6000 60  0000 C CNN
	1    5200 6000
	1    0    0    -1  
$EndComp
Wire Wire Line
	5100 5900 5200 5900
Wire Wire Line
	5200 5900 5200 6000
Text GLabel 3400 3000 1    47   Input ~ 0
MEANDER
Text GLabel 2200 3000 1    47   Input ~ 0
MEANDER
$Comp
L CONN_01X02 P2
U 1 1 573B0EAA
P 9600 5050
F 0 "P2" H 9600 5200 50  0000 C CNN
F 1 "GROUND" V 9700 5050 50  0000 C CNN
F 2 "Local:2PIN_13" H 9600 5050 60  0001 C CNN
F 3 "" H 9600 5050 60  0000 C CNN
	1    9600 5050
	1    0    0    -1  
$EndComp
Text GLabel 9300 5000 0    47   Input ~ 0
GROUND
$Comp
L GND #PWR016
U 1 1 573B100A
P 9300 5200
F 0 "#PWR016" H 9300 4950 60  0001 C CNN
F 1 "GND" H 9300 5050 60  0000 C CNN
F 2 "" H 9300 5200 60  0000 C CNN
F 3 "" H 9300 5200 60  0000 C CNN
	1    9300 5200
	1    0    0    -1  
$EndComp
Wire Wire Line
	9400 5000 9300 5000
Wire Wire Line
	9400 5100 9300 5100
Wire Wire Line
	9300 5100 9300 5200
Text Notes 7800 2050 0    60   ~ 0
EQ[X[C]]: X[C] = 1 / (2 * %pi * f * C);\nPR[O]: [f=4.8e6, V[I]=3.2];\nEQ[X[C]], PR[O], C=2.3e-12, numer;\nEQ[X[C]], PR[O], C=5.8e-12, numer;\nEQ[X[C]], C=1e-9, f=4.8e6, numer;\nEQ[V[D]]: V[D] = V[I] * R[1] / (R[1] + R[2]) - 0.9;\nEQ[V[D]], PR[O], R[1]=5.7e3, R[2]=10e3+33;\nEQ[V[D]], PR[O], R[1]=14.4e3, R[2]=10e3+33;
Text Notes 8150 6050 0    60   ~ 0
Sensor:\ntwo stright wires d=1.2mm l=60mm\n\nCapacity:\n2.3p - dry\n5.8p - wet
$EndSCHEMATC
